{
  "E14000720": {
    "mp": "Rt Hon Diane Abbott MP",
    "party": "Labour",
    "constituency": "Hackney North and Stoke Newington",
    "ons_code": "E14000720"
  },
  "E14000870": {
    "mp": "Debbie Abrahams MP",
    "party": "Labour",
    "constituency": "Oldham East and Saddleworth",
    "ons_code": "E14000870"
  },
  "E14000917": {
    "mp": "Nigel Adams MP",
    "party": "Conservative",
    "constituency": "Selby and Ainsty",
    "ons_code": "E14000917"
  },
  "E14000749": {
    "mp": "Bim Afolami MP",
    "party": "Conservative",
    "constituency": "Hitchin and Harpenden",
    "ons_code": "E14000749"
  },
  "E14001042": {
    "mp": "Adam Afriyie MP",
    "party": "Conservative",
    "constituency": "Windsor",
    "ons_code": "E14001042"
  },
  "E14001022": {
    "mp": "Peter Aldous MP",
    "party": "Conservative",
    "constituency": "Waveney",
    "ons_code": "E14001022"
  },
  "E14000787": {
    "mp": "Heidi Alexander MP",
    "party": "Labour",
    "constituency": "Lewisham East",
    "ons_code": "E14000787"
  },
  "E14000555": {
    "mp": "Rushanara Ali MP",
    "party": "Labour",
    "constituency": "Bethnal Green and Bow",
    "ons_code": "E14000555"
  },
  "E14000989": {
    "mp": "Lucy Allan MP",
    "party": "Conservative",
    "constituency": "Telford",
    "ons_code": "E14000989"
  },
  "E14000934": {
    "mp": "Heidi Allen MP",
    "party": "Conservative",
    "constituency": "South Cambridgeshire",
    "ons_code": "E14000934"
  },
  "E14000998": {
    "mp": "Dr Rosena Allin-Khan MP",
    "party": "Labour",
    "constituency": "Tooting",
    "ons_code": "E14000998"
  },
  "E14001024": {
    "mp": "Mike Amesbury MP",
    "party": "Labour",
    "constituency": "Weaver Vale",
    "ons_code": "E14001024"
  },
  "E14000957": {
    "mp": "Sir David Amess MP",
    "party": "Conservative",
    "constituency": "Southend West",
    "ons_code": "E14000957"
  },
  "E14000886": {
    "mp": "Stuart Andrew MP",
    "party": "Conservative",
    "constituency": "Pudsey",
    "ons_code": "E14000886"
  },
  "W07000046": {
    "mp": "Tonia Antoniazzi MP",
    "party": "Labour",
    "constituency": "Gower",
    "ons_code": "W07000046"
  },
  "E14000625": {
    "mp": "Edward Argar MP",
    "party": "Conservative",
    "constituency": "Charnwood",
    "ons_code": "E14000625"
  },
  "E14000783": {
    "mp": "Jonathan Ashworth MP",
    "party": "Labour/Co-operative",
    "constituency": "Leicester South",
    "ons_code": "E14000783"
  },
  "E14000798": {
    "mp": "Victoria Atkins MP",
    "party": "Conservative",
    "constituency": "Louth and Horncastle",
    "ons_code": "E14000798"
  },
  "E14000671": {
    "mp": "Ian Austin MP",
    "party": "Labour",
    "constituency": "Dudley North",
    "ons_code": "E14000671"
  },
  "E14000941": {
    "mp": "Mr Richard Bacon MP",
    "party": "Conservative",
    "constituency": "South Norfolk",
    "ons_code": "E14000941"
  },
  "E14000910": {
    "mp": "Mrs Kemi Badenoch MP",
    "party": "Conservative",
    "constituency": "Saffron Walden",
    "ons_code": "E14000910"
  },
  "E14001030": {
    "mp": "Mr Adrian Bailey MP",
    "party": "Labour/Co-operative",
    "constituency": "West Bromwich West",
    "ons_code": "E14001030"
  },
  "E14001056": {
    "mp": "Mr Steve Baker MP",
    "party": "Conservative",
    "constituency": "Wycombe",
    "ons_code": "E14001056"
  },
  "E14001035": {
    "mp": "Harriett Baldwin MP",
    "party": "Conservative",
    "constituency": "West Worcestershire",
    "ons_code": "E14001035"
  },
  "E14000842": {
    "mp": "Stephen Barclay MP",
    "party": "Conservative",
    "constituency": "North East Cambridgeshire",
    "ons_code": "E14000842"
  },
  "S14000044": {
    "mp": "Hannah Bardell MP",
    "party": "Scottish National Party",
    "constituency": "Livingston",
    "ons_code": "S14000044"
  },
  "E14000544": {
    "mp": "Mr John Baron MP",
    "party": "Conservative",
    "constituency": "Basildon and Billericay",
    "ons_code": "E14000544"
  },
  "E14000903": {
    "mp": "Rt Hon Sir Kevin Barron MP",
    "party": "Labour",
    "constituency": "Rother Valley",
    "ons_code": "E14000903"
  },
  "W07000058": {
    "mp": "Guto Bebb MP",
    "party": "Conservative",
    "constituency": "Aberconwy",
    "ons_code": "W07000058"
  },
  "E14000663": {
    "mp": "Rt Hon Margaret Beckett MP",
    "party": "Labour",
    "constituency": "Derby South",
    "ons_code": "E14000663"
  },
  "E14000859": {
    "mp": "Sir Henry Bellingham MP",
    "party": "Conservative",
    "constituency": "North West Norfolk",
    "ons_code": "E14000859"
  },
  "E14000777": {
    "mp": "Rt Hon Hilary Benn MP",
    "party": "Labour",
    "constituency": "Leeds Central",
    "ons_code": "E14000777"
  },
  "E14000830": {
    "mp": "Rt Hon Richard Benyon MP",
    "party": "Conservative",
    "constituency": "Newbury",
    "ons_code": "E14000830"
  },
  "E14000608": {
    "mp": "Rt Hon John Bercow MP",
    "party": "Speaker",
    "constituency": "Buckingham",
    "ons_code": "E14000608"
  },
  "E14000824": {
    "mp": "Sir Paul Beresford MP",
    "party": "Conservative",
    "constituency": "Mole Valley",
    "ons_code": "E14000824"
  },
  "E14000795": {
    "mp": "Luciana Berger MP",
    "party": "Labour/Co-operative",
    "constituency": "Liverpool, Wavertree",
    "ons_code": "E14000795"
  },
  "E14000902": {
    "mp": "Jake Berry MP",
    "party": "Conservative",
    "constituency": "Rossendale and Darwen",
    "ons_code": "E14000902"
  },
  "E14000920": {
    "mp": "Mr Clive Betts MP",
    "party": "Labour",
    "constituency": "Sheffield South East",
    "ons_code": "E14000920"
  },
  "S14000053": {
    "mp": "Mhairi Black MP",
    "party": "Scottish National Party",
    "constituency": "Paisley and Renfrewshire South",
    "ons_code": "S14000053"
  },
  "S14000055": {
    "mp": "Rt Hon Ian Blackford MP",
    "party": "Scottish National Party",
    "constituency": "Ross, Skye and Lochaber",
    "ons_code": "S14000055"
  },
  "E14000731": {
    "mp": "Bob Blackman MP",
    "party": "Conservative",
    "constituency": "Harrow East",
    "ons_code": "E14000731"
  },
  "S14000001": {
    "mp": "Kirsty Blackman MP",
    "party": "Scottish National Party",
    "constituency": "Aberdeen North",
    "ons_code": "S14000001"
  },
  "E14000641": {
    "mp": "Dr Roberta Blackman-Woods MP",
    "party": "Labour",
    "constituency": "City of Durham",
    "ons_code": "E14000641"
  },
  "E14000919": {
    "mp": "Paul Blomfield MP",
    "party": "Labour",
    "constituency": "Sheffield Central",
    "ons_code": "E14000919"
  },
  "E14000893": {
    "mp": "Crispin Blunt MP",
    "party": "Conservative",
    "constituency": "Reigate",
    "ons_code": "E14000893"
  },
  "E14000714": {
    "mp": "Nick Boles MP",
    "party": "Conservative",
    "constituency": "Grantham and Stamford",
    "ons_code": "E14000714"
  },
  "E14001025": {
    "mp": "Mr Peter Bone MP",
    "party": "Conservative",
    "constituency": "Wellingborough",
    "ons_code": "E14001025"
  },
  "E14001055": {
    "mp": "Sir Peter Bottomley MP",
    "party": "Conservative",
    "constituency": "Worthing West",
    "ons_code": "E14001055"
  },
  "S14000058": {
    "mp": "Andrew Bowie MP",
    "party": "Conservative",
    "constituency": "West Aberdeenshire and Kincardine",
    "ons_code": "S14000058"
  },
  "E14000548": {
    "mp": "Tracy Brabin MP",
    "party": "Labour/Co-operative",
    "constituency": "Batley and Spen",
    "ons_code": "E14000548"
  },
  "E14000810": {
    "mp": "Ben Bradley MP",
    "party": "Conservative",
    "constituency": "Mansfield",
    "ons_code": "E14000810"
  },
  "E14000966": {
    "mp": "Rt Hon Karen Bradley MP",
    "party": "Conservative",
    "constituency": "Staffordshire Moorlands",
    "ons_code": "E14000966"
  },
  "E14000698": {
    "mp": "Rt Hon Ben Bradshaw MP",
    "party": "Labour",
    "constituency": "Exeter",
    "ons_code": "E14000698"
  },
  "E14000532": {
    "mp": "Mr Graham Brady MP",
    "party": "Conservative",
    "constituency": "Altrincham and Sale West",
    "ons_code": "E14000532"
  },
  "N06000011": {
    "mp": "Mickey Brady MP",
    "party": "Sinn Féin",
    "constituency": "Newry and Armagh",
    "ons_code": "N06000011"
  },
  "E14000621": {
    "mp": "Rt Hon Tom Brake MP",
    "party": "Liberal Democrat",
    "constituency": "Carshalton and Wallington",
    "ons_code": "E14000621"
  },
  "W07000079": {
    "mp": "Kevin Brennan MP",
    "party": "Labour",
    "constituency": "Cardiff West",
    "ons_code": "W07000079"
  },
  "E14000974": {
    "mp": "Jack Brereton MP",
    "party": "Conservative",
    "constituency": "Stoke-on-Trent South",
    "ons_code": "E14000974"
  },
  "E14000858": {
    "mp": "Andrew Bridgen MP",
    "party": "Conservative",
    "constituency": "North West Leicestershire",
    "ons_code": "E14000858"
  },
  "E14001041": {
    "mp": "Steve Brine MP",
    "party": "Conservative",
    "constituency": "Winchester",
    "ons_code": "E14001041"
  },
  "S14000023": {
    "mp": "Deidre Brock MP",
    "party": "Scottish National Party",
    "constituency": "Edinburgh North and Leith",
    "ons_code": "S14000023"
  },
  "E14000869": {
    "mp": "Rt Hon James Brokenshire MP",
    "party": "Conservative",
    "constituency": "Old Bexley and Sidcup",
    "ons_code": "E14000869"
  },
  "S14000040": {
    "mp": "Alan Brown MP",
    "party": "Scottish National Party",
    "constituency": "Kilmarnock and Loudoun",
    "ons_code": "S14000040"
  },
  "E14001032": {
    "mp": "Lyn Brown MP",
    "party": "Labour",
    "constituency": "West Ham",
    "ons_code": "E14001032"
  },
  "E14000832": {
    "mp": "Rt Hon Nicholas Brown MP",
    "party": "Labour",
    "constituency": "Newcastle upon Tyne East",
    "ons_code": "E14000832"
  },
  "E14000646": {
    "mp": "Fiona Bruce MP",
    "party": "Conservative",
    "constituency": "Congleton",
    "ons_code": "E14000646"
  },
  "W07000052": {
    "mp": "Chris Bryant MP",
    "party": "Labour",
    "constituency": "Rhondda",
    "ons_code": "W07000052"
  },
  "E14001036": {
    "mp": "Ms Karen Buck MP",
    "party": "Labour",
    "constituency": "Westminster North",
    "ons_code": "E14001036"
  },
  "E14000947": {
    "mp": "Robert Buckland MP",
    "party": "Conservative",
    "constituency": "South Swindon",
    "ons_code": "E14000947"
  },
  "E14000565": {
    "mp": "Richard Burden MP",
    "party": "Labour",
    "constituency": "Birmingham, Northfield",
    "ons_code": "E14000565"
  },
  "E14000594": {
    "mp": "Alex Burghart MP",
    "party": "Conservative",
    "constituency": "Brentwood and Ongar",
    "ons_code": "E14000594"
  },
  "E14000778": {
    "mp": "Richard Burgon MP",
    "party": "Labour",
    "constituency": "Leeds East",
    "ons_code": "E14000778"
  },
  "E14000585": {
    "mp": "Conor Burns MP",
    "party": "Conservative",
    "constituency": "Bournemouth West",
    "ons_code": "E14000585"
  },
  "E14000841": {
    "mp": "Rt Hon Alistair Burt MP",
    "party": "Conservative",
    "constituency": "North East Bedfordshire",
    "ons_code": "E14000841"
  },
  "E14000591": {
    "mp": "Dawn Butler MP",
    "party": "Labour",
    "constituency": "Brent Central",
    "ons_code": "E14000591"
  },
  "E14000563": {
    "mp": "Rt Hon Liam Byrne MP",
    "party": "Labour",
    "constituency": "Birmingham, Hodge Hill",
    "ons_code": "E14000563"
  },
  "E14001005": {
    "mp": "Rt Hon Sir Vince Cable MP",
    "party": "Liberal Democrat",
    "constituency": "Twickenham",
    "ons_code": "E14001005"
  },
  "E14000593": {
    "mp": "Ruth Cadbury MP",
    "party": "Labour",
    "constituency": "Brentford and Isleworth",
    "ons_code": "E14000593"
  },
  "W07000078": {
    "mp": "Rt Hon Alun Cairns MP",
    "party": "Conservative",
    "constituency": "Vale of Glamorgan",
    "ons_code": "W07000078"
  },
  "S14000019": {
    "mp": "Dr Lisa Cameron MP",
    "party": "Scottish National Party",
    "constituency": "East Kilbride, Strathaven and Lesmahagow",
    "ons_code": "S14000019"
  },
  "E14001006": {
    "mp": "Rt Hon Alan Campbell MP",
    "party": "Labour",
    "constituency": "Tynemouth",
    "ons_code": "E14001006"
  },
  "N06000006": {
    "mp": "Mr Gregory Campbell MP",
    "party": "Democratic Unionist Party",
    "constituency": "East Londonderry",
    "ons_code": "N06000006"
  },
  "E14000575": {
    "mp": "Mr Ronnie Campbell MP",
    "party": "Labour",
    "constituency": "Blyth Valley",
    "ons_code": "E14000575"
  },
  "E14000794": {
    "mp": "Dan Carden MP",
    "party": "Labour",
    "constituency": "Liverpool, Walton",
    "ons_code": "E14000794"
  },
  "S14000051": {
    "mp": "Rt Hon Alistair Carmichael MP",
    "party": "Liberal Democrat",
    "constituency": "Orkney and Shetland",
    "ons_code": "S14000051"
  },
  "E14000946": {
    "mp": "James Cartlidge MP",
    "party": "Conservative",
    "constituency": "South Suffolk",
    "ons_code": "E14000946"
  },
  "E14000975": {
    "mp": "Sir William Cash MP",
    "party": "Conservative",
    "constituency": "Stone",
    "ons_code": "E14000975"
  },
  "E14000786": {
    "mp": "Maria Caulfield MP",
    "party": "Conservative",
    "constituency": "Lewes",
    "ons_code": "E14000786"
  },
  "E14000630": {
    "mp": "Alex Chalk MP",
    "party": "Conservative",
    "constituency": "Cheltenham",
    "ons_code": "E14000630"
  },
  "E14000904": {
    "mp": "Sarah Champion MP",
    "party": "Labour",
    "constituency": "Rotherham",
    "ons_code": "E14000904"
  },
  "S14000017": {
    "mp": "Douglas Chapman MP",
    "party": "Scottish National Party",
    "constituency": "Dunfermline and West Fife",
    "ons_code": "S14000017"
  },
  "E14000658": {
    "mp": "Jenny Chapman MP",
    "party": "Labour",
    "constituency": "Darlington",
    "ons_code": "E14000658"
  },
  "E14000692": {
    "mp": "Bambos Charalambous MP",
    "party": "Labour",
    "constituency": "Enfield, Southgate",
    "ons_code": "E14000692"
  },
  "S14000025": {
    "mp": "Joanna Cherry QC MP",
    "party": "Scottish National Party",
    "constituency": "Edinburgh South West",
    "ons_code": "S14000025"
  },
  "E14000711": {
    "mp": "Rehman Chishti MP",
    "party": "Conservative",
    "constituency": "Gillingham and Rainham",
    "ons_code": "E14000711"
  },
  "E14000638": {
    "mp": "Mr Christopher Chope MP",
    "party": "Conservative",
    "constituency": "Christchurch",
    "ons_code": "E14000638"
  },
  "E14000613": {
    "mp": "Jo Churchill MP",
    "party": "Conservative",
    "constituency": "Bury St Edmunds",
    "ons_code": "E14000613"
  },
  "S14000037": {
    "mp": "Colin Clark MP",
    "party": "Conservative",
    "constituency": "Gordon",
    "ons_code": "S14000037"
  },
  "E14001004": {
    "mp": "Rt Hon Greg Clark MP",
    "party": "Conservative",
    "constituency": "Tunbridge Wells",
    "ons_code": "E14001004"
  },
  "E14000908": {
    "mp": "Rt Hon Kenneth Clarke QC MP",
    "party": "Conservative",
    "constituency": "Rushcliffe",
    "ons_code": "E14000908"
  },
  "E14000820": {
    "mp": "Mr Simon Clarke MP",
    "party": "Conservative",
    "constituency": "Middlesbrough South and East Cleveland",
    "ons_code": "E14000820"
  },
  "E14000590": {
    "mp": "James Cleverly MP",
    "party": "Conservative",
    "constituency": "Braintree",
    "ons_code": "E14000590"
  },
  "E14000991": {
    "mp": "Geoffrey Clifton-Brown MP",
    "party": "Conservative",
    "constituency": "The Cotswolds",
    "ons_code": "E14000991"
  },
  "W07000070": {
    "mp": "Rt Hon Ann Clwyd MP",
    "party": "Labour",
    "constituency": "Cynon Valley",
    "ons_code": "W07000070"
  },
  "E14000710": {
    "mp": "Vernon Coaker MP",
    "party": "Labour",
    "constituency": "Gedling",
    "ons_code": "E14000710"
  },
  "E14000969": {
    "mp": "Ann Coffey MP",
    "party": "Labour",
    "constituency": "Stockport",
    "ons_code": "E14000969"
  },
  "E14000981": {
    "mp": "Dr Thérèse Coffey MP",
    "party": "Conservative",
    "constituency": "Suffolk Coastal",
    "ons_code": "E14000981"
  },
  "E14000704": {
    "mp": "Damian Collins MP",
    "party": "Conservative",
    "constituency": "Folkestone and Hythe",
    "ons_code": "E14000704"
  },
  "E14000609": {
    "mp": "Julie Cooper MP",
    "party": "Labour",
    "constituency": "Burnley",
    "ons_code": "E14000609"
  },
  "E14001033": {
    "mp": "Rosie Cooper MP",
    "party": "Labour",
    "constituency": "West Lancashire",
    "ons_code": "E14001033"
  },
  "E14000836": {
    "mp": "Rt Hon Yvette Cooper MP",
    "party": "Labour",
    "constituency": "Normanton, Pontefract and Castleford",
    "ons_code": "E14000836"
  },
  "E14000763": {
    "mp": "Rt Hon Jeremy Corbyn MP",
    "party": "Labour",
    "constituency": "Islington North",
    "ons_code": "E14000763"
  },
  "E14000940": {
    "mp": "Alberto Costa MP",
    "party": "Conservative",
    "constituency": "South Leicestershire",
    "ons_code": "E14000940"
  },
  "E14001046": {
    "mp": "Robert Courts MP",
    "party": "Conservative",
    "constituency": "Witney",
    "ons_code": "E14001046"
  },
  "S14000038": {
    "mp": "Ronnie Cowan MP",
    "party": "Scottish National Party",
    "constituency": "Inverclyde",
    "ons_code": "S14000038"
  },
  "E14001000": {
    "mp": "Mr Geoffrey Cox QC MP",
    "party": "Conservative",
    "constituency": "Torridge and West Devon",
    "ons_code": "E14001000"
  },
  "E14000553": {
    "mp": "Neil Coyle MP",
    "party": "Labour",
    "constituency": "Bermondsey and Old Southwark",
    "ons_code": "E14000553"
  },
  "W07000065": {
    "mp": "Rt Hon Stephen Crabb MP",
    "party": "Conservative",
    "constituency": "Preseli Pembrokeshire",
    "ons_code": "W07000065"
  },
  "E14000578": {
    "mp": "Sir David Crausby MP",
    "party": "Labour",
    "constituency": "Bolton North East",
    "ons_code": "E14000578"
  },
  "S14000042": {
    "mp": "Angela Crawley MP",
    "party": "Scottish National Party",
    "constituency": "Lanark and Hamilton East",
    "ons_code": "S14000042"
  },
  "E14001009": {
    "mp": "Mary Creagh MP",
    "party": "Labour",
    "constituency": "Wakefield",
    "ons_code": "E14001009"
  },
  "E14001013": {
    "mp": "Stella Creasy MP",
    "party": "Labour/Co-operative",
    "constituency": "Walthamstow",
    "ons_code": "E14001013"
  },
  "E14000626": {
    "mp": "Tracey Crouch MP",
    "party": "Conservative",
    "constituency": "Chatham and Aylesford",
    "ons_code": "E14000626"
  },
  "E14000657": {
    "mp": "Jon Cruddas MP",
    "party": "Labour",
    "constituency": "Dagenham and Rainham",
    "ons_code": "E14000657"
  },
  "E14000790": {
    "mp": "John Cryer MP",
    "party": "Labour",
    "constituency": "Leyton and Wanstead",
    "ons_code": "E14000790"
  },
  "E14000588": {
    "mp": "Judith Cummins MP",
    "party": "Labour",
    "constituency": "Bradford South",
    "ons_code": "E14000588"
  },
  "E14000970": {
    "mp": "Alex Cunningham MP",
    "party": "Labour",
    "constituency": "Stockton North",
    "ons_code": "E14000970"
  },
  "E14000651": {
    "mp": "Mr Jim Cunningham MP",
    "party": "Labour",
    "constituency": "Coventry South",
    "ons_code": "E14000651"
  },
  "E14000914": {
    "mp": "Nic Dakin MP",
    "party": "Labour",
    "constituency": "Scunthorpe",
    "ons_code": "E14000914"
  },
  "E14000770": {
    "mp": "Rt Hon Sir Edward Davey MP",
    "party": "Liberal Democrat",
    "constituency": "Kingston and Surbiton",
    "ons_code": "E14000770"
  },
  "W07000076": {
    "mp": "Wayne David MP",
    "party": "Labour",
    "constituency": "Caerphilly",
    "ons_code": "W07000076"
  },
  "W07000068": {
    "mp": "Chris Davies MP",
    "party": "Conservative",
    "constituency": "Brecon and Radnorshire",
    "ons_code": "W07000068"
  },
  "W07000054": {
    "mp": "David T. C. Davies MP",
    "party": "Conservative",
    "constituency": "Monmouth",
    "ons_code": "W07000054"
  },
  "W07000047": {
    "mp": "Geraint Davies MP",
    "party": "Labour/Co-operative",
    "constituency": "Swansea West",
    "ons_code": "W07000047"
  },
  "W07000063": {
    "mp": "Glyn Davies MP",
    "party": "Conservative",
    "constituency": "Montgomeryshire",
    "ons_code": "W07000063"
  },
  "E14000685": {
    "mp": "Mims Davies MP",
    "party": "Conservative",
    "constituency": "Eastleigh",
    "ons_code": "E14000685"
  },
  "E14000925": {
    "mp": "Philip Davies MP",
    "party": "Conservative",
    "constituency": "Shipley",
    "ons_code": "E14000925"
  },
  "E14000724": {
    "mp": "Rt Hon David Davis MP",
    "party": "Conservative",
    "constituency": "Haltemprice and Howden",
    "ons_code": "E14000724"
  },
  "S14000043": {
    "mp": "Martyn Day MP",
    "party": "Scottish National Party",
    "constituency": "Linlithgow and East Falkirk",
    "ons_code": "S14000043"
  },
  "E14000549": {
    "mp": "Marsha De Cordova MP",
    "party": "Labour",
    "constituency": "Battersea",
    "ons_code": "E14000549"
  },
  "E14000535": {
    "mp": "Gloria De Piero MP",
    "party": "Labour",
    "constituency": "Ashfield",
    "ons_code": "E14000535"
  },
  "E14000602": {
    "mp": "Thangam Debbonaire MP",
    "party": "Labour",
    "constituency": "Bristol West",
    "ons_code": "E14000602"
  },
  "E14000768": {
    "mp": "Emma Dent Coad MP",
    "party": "Labour",
    "constituency": "Kensington",
    "ons_code": "E14000768"
  },
  "E14000930": {
    "mp": "Mr Tanmanjeet Singh Dhesi MP",
    "party": "Labour",
    "constituency": "Slough",
    "ons_code": "E14000930"
  },
  "E14000713": {
    "mp": "Caroline Dinenage MP",
    "party": "Conservative",
    "constituency": "Gosport",
    "ons_code": "E14000713"
  },
  "E14000757": {
    "mp": "Mr Jonathan Djanogly MP",
    "party": "Conservative",
    "constituency": "Huntingdon",
    "ons_code": "E14000757"
  },
  "E14000530": {
    "mp": "Leo Docherty MP",
    "party": "Conservative",
    "constituency": "Aldershot",
    "ons_code": "E14000530"
  },
  "S14000059": {
    "mp": "Martin Docherty-Hughes MP",
    "party": "Scottish National Party",
    "constituency": "West Dunbartonshire",
    "ons_code": "S14000059"
  },
  "E14000751": {
    "mp": "Julia Dockerill MP",
    "party": "Conservative",
    "constituency": "Hornchurch and Upminster",
    "ons_code": "E14000751"
  },
  "E14000873": {
    "mp": "Anneliese Dodds MP",
    "party": "Labour/Co-operative",
    "constituency": "Oxford East",
    "ons_code": "E14000873"
  },
  "N06000002": {
    "mp": "Rt Hon Nigel Dodds MP",
    "party": "Democratic Unionist Party",
    "constituency": "Belfast North",
    "ons_code": "N06000002"
  },
  "N06000009": {
    "mp": "Rt Hon Sir Jeffrey M. Donaldson MP",
    "party": "Democratic Unionist Party",
    "constituency": "Lagan Valley",
    "ons_code": "N06000009"
  },
  "E14000635": {
    "mp": "Michelle Donelan MP",
    "party": "Conservative",
    "constituency": "Chippenham",
    "ons_code": "E14000635"
  },
  "E14000813": {
    "mp": "Ms Nadine Dorries MP",
    "party": "Conservative",
    "constituency": "Mid Bedfordshire",
    "ons_code": "E14000813"
  },
  "E14000961": {
    "mp": "Steve Double MP",
    "party": "Conservative",
    "constituency": "St Austell and Newquay",
    "ons_code": "E14000961"
  },
  "W07000080": {
    "mp": "Stephen Doughty MP",
    "party": "Labour/Co-operative",
    "constituency": "Cardiff South and Penarth",
    "ons_code": "W07000080"
  },
  "E14000581": {
    "mp": "Peter Dowd MP",
    "party": "Labour",
    "constituency": "Bootle",
    "ons_code": "E14000581"
  },
  "E14000745": {
    "mp": "Oliver Dowden MP",
    "party": "Conservative",
    "constituency": "Hertsmere",
    "ons_code": "E14000745"
  },
  "E14000995": {
    "mp": "Jackie Doyle-Price MP",
    "party": "Conservative",
    "constituency": "Thurrock",
    "ons_code": "E14000995"
  },
  "E14000936": {
    "mp": "Richard Drax MP",
    "party": "Conservative",
    "constituency": "South Dorset",
    "ons_code": "E14000936"
  },
  "E14000980": {
    "mp": "Dr David Drew MP",
    "party": "Labour/Co-operative",
    "constituency": "Stroud",
    "ons_code": "E14000980"
  },
  "E14000561": {
    "mp": "Jack Dromey MP",
    "party": "Labour",
    "constituency": "Birmingham, Erdington",
    "ons_code": "E14000561"
  },
  "E14000899": {
    "mp": "James Duddridge MP",
    "party": "Conservative",
    "constituency": "Rochford and Southend East",
    "ons_code": "E14000899"
  },
  "E14000619": {
    "mp": "Rosie Duffield MP",
    "party": "Labour",
    "constituency": "Canterbury",
    "ons_code": "E14000619"
  },
  "S14000007": {
    "mp": "David Duguid MP",
    "party": "Conservative",
    "constituency": "Banff and Buchan",
    "ons_code": "S14000007"
  },
  "E14000909": {
    "mp": "Rt Hon Sir Alan Duncan MP",
    "party": "Conservative",
    "constituency": "Rutland and Melton",
    "ons_code": "E14000909"
  },
  "E14000634": {
    "mp": "Rt Hon Iain Duncan Smith MP",
    "party": "Conservative",
    "constituency": "Chingford and Woodford Green",
    "ons_code": "E14000634"
  },
  "E14000799": {
    "mp": "Mr Philip Dunne MP",
    "party": "Conservative",
    "constituency": "Ludlow",
    "ons_code": "E14000799"
  },
  "E14001010": {
    "mp": "Ms Angela Eagle MP",
    "party": "Labour",
    "constituency": "Wallasey",
    "ons_code": "E14001010"
  },
  "E14000708": {
    "mp": "Maria Eagle MP",
    "party": "Labour",
    "constituency": "Garston and Halewood",
    "ons_code": "E14000708"
  },
  "W07000067": {
    "mp": "Jonathan Edwards MP",
    "party": "Plaid Cymru",
    "constituency": "Carmarthen East and Dinefwr",
    "ons_code": "W07000067"
  },
  "E14000690": {
    "mp": "Clive Efford MP",
    "party": "Labour",
    "constituency": "Eltham",
    "ons_code": "E14000690"
  },
  "E14000982": {
    "mp": "Julie Elliott MP",
    "party": "Labour",
    "constituency": "Sunderland Central",
    "ons_code": "E14000982"
  },
  "E14000861": {
    "mp": "Michael Ellis MP",
    "party": "Conservative",
    "constituency": "Northampton North",
    "ons_code": "E14000861"
  },
  "E14000793": {
    "mp": "Mrs Louise Ellman MP",
    "party": "Labour/Co-operative",
    "constituency": "Liverpool, Riverside",
    "ons_code": "E14000793"
  },
  "E14000584": {
    "mp": "Rt Hon Tobias Ellwood MP",
    "party": "Conservative",
    "constituency": "Bournemouth East",
    "ons_code": "E14000584"
  },
  "W07000074": {
    "mp": "Chris Elmore MP",
    "party": "Labour",
    "constituency": "Ogmore",
    "ons_code": "W07000074"
  },
  "E14000670": {
    "mp": "Charlie Elphicke MP",
    "party": "Conservative",
    "constituency": "Dover",
    "ons_code": "E14000670"
  },
  "E14000916": {
    "mp": "Bill Esterson MP",
    "party": "Labour",
    "constituency": "Sefton Central",
    "ons_code": "E14000916"
  },
  "E14000616": {
    "mp": "George Eustice MP",
    "party": "Conservative",
    "constituency": "Camborne and Redruth",
    "ons_code": "E14000616"
  },
  "W07000077": {
    "mp": "Chris Evans MP",
    "party": "Labour/Co-operative",
    "constituency": "Islwyn",
    "ons_code": "W07000077"
  },
  "E14000894": {
    "mp": "Mr Nigel Evans MP",
    "party": "Conservative",
    "constituency": "Ribble Valley",
    "ons_code": "E14000894"
  },
  "E14000558": {
    "mp": "Rt Hon David Evennett MP",
    "party": "Conservative",
    "constituency": "Bexleyheath and Crayford",
    "ons_code": "E14000558"
  },
  "E14000791": {
    "mp": "Michael Fabricant MP",
    "party": "Conservative",
    "constituency": "Lichfield",
    "ons_code": "E14000791"
  },
  "E14000918": {
    "mp": "Rt Hon Sir Michael Fallon MP",
    "party": "Conservative",
    "constituency": "Sevenoaks",
    "ons_code": "E14000918"
  },
  "E14000834": {
    "mp": "Paul Farrelly MP",
    "party": "Labour",
    "constituency": "Newcastle-under-Lyme",
    "ons_code": "E14000834"
  },
  "E14001037": {
    "mp": "Tim Farron MP",
    "party": "Liberal Democrat",
    "constituency": "Westmorland and Lonsdale",
    "ons_code": "E14001037"
  },
  "S14000047": {
    "mp": "Marion Fellows MP",
    "party": "Scottish National Party",
    "constituency": "Motherwell and Wishaw",
    "ons_code": "S14000047"
  },
  "E14000699": {
    "mp": "Suella Fernandes MP",
    "party": "Conservative",
    "constituency": "Fareham",
    "ons_code": "E14000699"
  },
  "E14000559": {
    "mp": "Rt Hon Frank Field MP",
    "party": "Labour",
    "constituency": "Birkenhead",
    "ons_code": "E14000559"
  },
  "E14000639": {
    "mp": "Rt Hon Mark Field MP",
    "party": "Conservative",
    "constituency": "Cities of London and Westminster",
    "ons_code": "E14000639"
  },
  "E14000882": {
    "mp": "Jim Fitzpatrick MP",
    "party": "Labour",
    "constituency": "Poplar and Limehouse",
    "ons_code": "E14000882"
  },
  "E14000649": {
    "mp": "Colleen Fletcher MP",
    "party": "Labour",
    "constituency": "Coventry North East",
    "ons_code": "E14000649"
  },
  "E14000667": {
    "mp": "Rt Hon Caroline Flint MP",
    "party": "Labour",
    "constituency": "Don Valley",
    "ons_code": "E14000667"
  },
  "W07000056": {
    "mp": "Paul Flynn MP",
    "party": "Labour",
    "constituency": "Newport West",
    "ons_code": "W07000056"
  },
  "E14000628": {
    "mp": "Vicky Ford MP",
    "party": "Conservative",
    "constituency": "Chelmsford",
    "ons_code": "E14000628"
  },
  "E14000999": {
    "mp": "Kevin Foster MP",
    "party": "Conservative",
    "constituency": "Torbay",
    "ons_code": "E14000999"
  },
  "E14000805": {
    "mp": "Yvonne Fovargue MP",
    "party": "Labour",
    "constituency": "Makerfield",
    "ons_code": "E14000805"
  },
  "E14000850": {
    "mp": "Rt Hon Dr Liam Fox MP",
    "party": "Conservative",
    "constituency": "North Somerset",
    "ons_code": "E14000850"
  },
  "E14000789": {
    "mp": "Vicky Foxcroft MP",
    "party": "Labour",
    "constituency": "Lewisham, Deptford",
    "ons_code": "E14000789"
  },
  "E14000888": {
    "mp": "Rt Hon Mark Francois MP",
    "party": "Conservative",
    "constituency": "Rayleigh and Wickford",
    "ons_code": "E14000888"
  },
  "E14000937": {
    "mp": "Lucy Frazer MP",
    "party": "Conservative",
    "constituency": "South East Cambridgeshire",
    "ons_code": "E14000937"
  },
  "E14000816": {
    "mp": "George Freeman MP",
    "party": "Conservative",
    "constituency": "Mid Norfolk",
    "ons_code": "E14000816"
  },
  "E14000703": {
    "mp": "Mike Freer MP",
    "party": "Conservative",
    "constituency": "Finchley and Golders Green",
    "ons_code": "E14000703"
  },
  "E14000611": {
    "mp": "James Frith MP",
    "party": "Labour",
    "constituency": "Bury North",
    "ons_code": "E14000611"
  },
  "E14000921": {
    "mp": "Gill Furniss MP",
    "party": "Labour",
    "constituency": "Sheffield, Brightside and Hillsborough",
    "ons_code": "E14000921"
  },
  "E14001060": {
    "mp": "Mr Marcus Fysh MP",
    "party": "Conservative",
    "constituency": "Yeovil",
    "ons_code": "E14001060"
  },
  "S14000011": {
    "mp": "Hugh Gaffney MP",
    "party": "Labour",
    "constituency": "Coatbridge, Chryston and Bellshill",
    "ons_code": "S14000011"
  },
  "E14000852": {
    "mp": "Sir Roger Gale MP",
    "party": "Conservative",
    "constituency": "North Thanet",
    "ons_code": "E14000852"
  },
  "E14000760": {
    "mp": "Mike Gapes MP",
    "party": "Labour/Co-operative",
    "constituency": "Ilford South",
    "ons_code": "E14000760"
  },
  "E14000592": {
    "mp": "Barry Gardiner MP",
    "party": "Labour",
    "constituency": "Brent North",
    "ons_code": "E14000592"
  },
  "E14001058": {
    "mp": "Mark Garnier MP",
    "party": "Conservative",
    "constituency": "Wyre Forest",
    "ons_code": "E14001058"
  },
  "E14000951": {
    "mp": "Rt Hon David Gauke MP",
    "party": "Conservative",
    "constituency": "South West Hertfordshire",
    "ons_code": "E14000951"
  },
  "E14000748": {
    "mp": "Ruth George MP",
    "party": "Labour",
    "constituency": "High Peak",
    "ons_code": "E14000748"
  },
  "S14000049": {
    "mp": "Stephen Gethins MP",
    "party": "Scottish National Party",
    "constituency": "North East Fife",
    "ons_code": "S14000049"
  },
  "E14001023": {
    "mp": "Ms Nusrat Ghani MP",
    "party": "Conservative",
    "constituency": "Wealden",
    "ons_code": "E14001023"
  },
  "E14000576": {
    "mp": "Rt Hon Nick Gibb MP",
    "party": "Conservative",
    "constituency": "Bognor Regis and Littlehampton",
    "ons_code": "E14000576"
  },
  "S14000048": {
    "mp": "Patricia Gibson MP",
    "party": "Scottish National Party",
    "constituency": "North Ayrshire and Arran",
    "ons_code": "S14000048"
  },
  "N06000007": {
    "mp": "Michelle Gildernew MP",
    "party": "Sinn Féin",
    "constituency": "Fermanagh and South Tyrone",
    "ons_code": "N06000007"
  },
  "E14000560": {
    "mp": "Preet Kaur Gill MP",
    "party": "Labour/Co-operative",
    "constituency": "Birmingham, Edgbaston",
    "ons_code": "E14000560"
  },
  "E14000631": {
    "mp": "Rt Hon Cheryl Gillan MP",
    "party": "Conservative",
    "constituency": "Chesham and Amersham",
    "ons_code": "E14000631"
  },
  "N06000014": {
    "mp": "Paul Girvan MP",
    "party": "Democratic Unionist Party",
    "constituency": "South Antrim",
    "ons_code": "N06000014"
  },
  "E14000912": {
    "mp": "John Glen MP",
    "party": "Conservative",
    "constituency": "Salisbury",
    "ons_code": "E14000912"
  },
  "E14000853": {
    "mp": "Mary Glindon MP",
    "party": "Labour",
    "constituency": "North Tyneside",
    "ons_code": "E14000853"
  },
  "E14000562": {
    "mp": "Mr Roger Godsiff MP",
    "party": "Labour",
    "constituency": "Birmingham, Hall Green",
    "ons_code": "E14000562"
  },
  "E14000896": {
    "mp": "Zac Goldsmith MP",
    "party": "Conservative",
    "constituency": "Richmond Park",
    "ons_code": "E14000896"
  },
  "E14000569": {
    "mp": "Helen Goodman MP",
    "party": "Labour",
    "constituency": "Bishop Auckland",
    "ons_code": "E14000569"
  },
  "E14000913": {
    "mp": "Mr Robert Goodwill MP",
    "party": "Conservative",
    "constituency": "Scarborough and Whitby",
    "ons_code": "E14000913"
  },
  "E14000983": {
    "mp": "Rt Hon Michael Gove MP",
    "party": "Conservative",
    "constituency": "Surrey Heath",
    "ons_code": "E14000983"
  },
  "S14000031": {
    "mp": "Patrick Grady MP",
    "party": "Scottish National Party",
    "constituency": "Glasgow North",
    "ons_code": "S14000031"
  },
  "S14000050": {
    "mp": "Luke Graham MP",
    "party": "Conservative",
    "constituency": "Ochil and South Perthshire",
    "ons_code": "S14000050"
  },
  "E14000712": {
    "mp": "Richard Graham MP",
    "party": "Conservative",
    "constituency": "Gloucester",
    "ons_code": "E14000712"
  },
  "S14000006": {
    "mp": "Bill Grant MP",
    "party": "Conservative",
    "constituency": "Ayr, Carrick and Cumnock",
    "ons_code": "S14000006"
  },
  "E14000804": {
    "mp": "Mrs Helen Grant MP",
    "party": "Conservative",
    "constituency": "Maidstone and The Weald",
    "ons_code": "E14000804"
  },
  "S14000036": {
    "mp": "Peter Grant MP",
    "party": "Scottish National Party",
    "constituency": "Glenrothes",
    "ons_code": "S14000036"
  },
  "E14000860": {
    "mp": "James Gray MP",
    "party": "Conservative",
    "constituency": "North Wiltshire",
    "ons_code": "E14000860"
  },
  "S14000003": {
    "mp": "Neil Gray MP",
    "party": "Scottish National Party",
    "constituency": "Airdrie and Shotts",
    "ons_code": "S14000003"
  },
  "E14000694": {
    "mp": "Rt Hon Chris Grayling MP",
    "party": "Conservative",
    "constituency": "Epsom and Ewell",
    "ons_code": "E14000694"
  },
  "E14000580": {
    "mp": "Chris Green MP",
    "party": "Conservative",
    "constituency": "Bolton West",
    "ons_code": "E14000580"
  },
  "E14000536": {
    "mp": "Rt Hon Damian Green MP",
    "party": "Conservative",
    "constituency": "Ashford",
    "ons_code": "E14000536"
  },
  "E14000979": {
    "mp": "Kate Green MP",
    "party": "Labour",
    "constituency": "Stretford and Urmston",
    "ons_code": "E14000979"
  },
  "E14000887": {
    "mp": "Rt Hon Justine Greening MP",
    "party": "Conservative",
    "constituency": "Putney",
    "ons_code": "E14000887"
  },
  "E14000867": {
    "mp": "Lilian Greenwood MP",
    "party": "Labour",
    "constituency": "Nottingham South",
    "ons_code": "E14000867"
  },
  "E14001044": {
    "mp": "Margaret Greenwood MP",
    "party": "Labour",
    "constituency": "Wirral West",
    "ons_code": "E14001044"
  },
  "E14000550": {
    "mp": "Rt Hon Dominic Grieve QC MP",
    "party": "Conservative",
    "constituency": "Beaconsfield",
    "ons_code": "E14000550"
  },
  "W07000045": {
    "mp": "Nia Griffith MP",
    "party": "Labour",
    "constituency": "Llanelli",
    "ons_code": "W07000045"
  },
  "E14000610": {
    "mp": "Andrew Griffiths MP",
    "party": "Conservative",
    "constituency": "Burton",
    "ons_code": "E14000610"
  },
  "E14000766": {
    "mp": "John Grogan MP",
    "party": "Labour",
    "constituency": "Keighley",
    "ons_code": "E14000766"
  },
  "E14000661": {
    "mp": "Andrew Gwynne MP",
    "party": "Labour",
    "constituency": "Denton and Reddish",
    "ons_code": "E14000661"
  },
  "E14000681": {
    "mp": "Mr Sam Gyimah MP",
    "party": "Conservative",
    "constituency": "East Surrey",
    "ons_code": "E14000681"
  },
  "E14000923": {
    "mp": "Louise Haigh MP",
    "party": "Labour",
    "constituency": "Sheffield, Heeley",
    "ons_code": "E14000923"
  },
  "S14000004": {
    "mp": "Kirstene Hair MP",
    "party": "Conservative",
    "constituency": "Angus",
    "ons_code": "S14000004"
  },
  "E14000729": {
    "mp": "Rt Hon Robert Halfon MP",
    "party": "Conservative",
    "constituency": "Harlow",
    "ons_code": "E14000729"
  },
  "E14000994": {
    "mp": "Luke Hall MP",
    "party": "Conservative",
    "constituency": "Thornbury and Yate",
    "ons_code": "E14000994"
  },
  "E14000779": {
    "mp": "Fabian Hamilton MP",
    "party": "Labour",
    "constituency": "Leeds North East",
    "ons_code": "E14000779"
  },
  "E14000907": {
    "mp": "Rt Hon Philip Hammond MP",
    "party": "Conservative",
    "constituency": "Runnymede and Weybridge",
    "ons_code": "E14000907"
  },
  "E14001040": {
    "mp": "Stephen Hammond MP",
    "party": "Conservative",
    "constituency": "Wimbledon",
    "ons_code": "E14001040"
  },
  "E14001034": {
    "mp": "Rt Hon Matt Hancock MP",
    "party": "Conservative",
    "constituency": "West Suffolk",
    "ons_code": "E14001034"
  },
  "E14000629": {
    "mp": "Rt Hon Greg Hands MP",
    "party": "Conservative",
    "constituency": "Chelsea and Fulham",
    "ons_code": "E14000629"
  },
  "W07000042": {
    "mp": "Rt Hon David Hanson MP",
    "party": "Labour",
    "constituency": "Delyn",
    "ons_code": "W07000042"
  },
  "E14000773": {
    "mp": "Emma Hardy MP",
    "party": "Labour",
    "constituency": "Kingston upon Hull West and Hessle",
    "ons_code": "E14000773"
  },
  "E14000615": {
    "mp": "Rt Hon Harriet Harman QC MP",
    "party": "Labour",
    "constituency": "Camberwell and Peckham",
    "ons_code": "E14000615"
  },
  "E14000705": {
    "mp": "Rt Hon Mark Harper MP",
    "party": "Conservative",
    "constituency": "Forest of Dean",
    "ons_code": "E14000705"
  },
  "E14001021": {
    "mp": "Richard Harrington MP",
    "party": "Conservative",
    "constituency": "Watford",
    "ons_code": "E14001021"
  },
  "W07000048": {
    "mp": "Carolyn Harris MP",
    "party": "Labour",
    "constituency": "Swansea East",
    "ons_code": "W07000048"
  },
  "E14000622": {
    "mp": "Rebecca Harris MP",
    "party": "Conservative",
    "constituency": "Castle Point",
    "ons_code": "E14000622"
  },
  "E14000647": {
    "mp": "Trudy Harrison MP",
    "party": "Conservative",
    "constituency": "Copeland",
    "ons_code": "E14000647"
  },
  "W07000066": {
    "mp": "Simon Hart MP",
    "party": "Conservative",
    "constituency": "Carmarthen West and South Pembrokeshire",
    "ons_code": "W07000066"
  },
  "E14000673": {
    "mp": "Helen Hayes MP",
    "party": "Labour",
    "constituency": "Dulwich and West Norwood",
    "ons_code": "E14000673"
  },
  "E14000939": {
    "mp": "Rt Hon John Hayes MP",
    "party": "Conservative",
    "constituency": "South Holland and The Deepings",
    "ons_code": "E14000939"
  },
  "E14001053": {
    "mp": "Sue Hayman MP",
    "party": "Labour",
    "constituency": "Workington",
    "ons_code": "E14001053"
  },
  "N06000015": {
    "mp": "Chris Hazzard MP",
    "party": "Sinn Féin",
    "constituency": "South Down",
    "ons_code": "N06000015"
  },
  "E14000845": {
    "mp": "Rt Hon Sir Oliver Heald QC MP",
    "party": "Conservative",
    "constituency": "North East Hertfordshire",
    "ons_code": "E14000845"
  },
  "E14001028": {
    "mp": "Rt Hon John Healey MP",
    "party": "Labour",
    "constituency": "Wentworth and Dearne",
    "ons_code": "E14001028"
  },
  "E14001026": {
    "mp": "James Heappey MP",
    "party": "Conservative",
    "constituency": "Wells",
    "ons_code": "E14001026"
  },
  "E14000660": {
    "mp": "Chris Heaton-Harris MP",
    "party": "Conservative",
    "constituency": "Daventry",
    "ons_code": "E14000660"
  },
  "E14000838": {
    "mp": "Peter Heaton-Jones MP",
    "party": "Conservative",
    "constituency": "North Devon",
    "ons_code": "E14000838"
  },
  "E14000927": {
    "mp": "Gordon Henderson MP",
    "party": "Conservative",
    "constituency": "Sittingbourne and Sheppey",
    "ons_code": "E14000927"
  },
  "E14000885": {
    "mp": "Mr Mark Hendrick MP",
    "party": "Labour/Co-operative",
    "constituency": "Preston",
    "ons_code": "E14000885"
  },
  "S14000039": {
    "mp": "Drew Hendry MP",
    "party": "Scottish National Party",
    "constituency": "Inverness, Nairn, Badenoch and Strathspey",
    "ons_code": "S14000039"
  },
  "E14000765": {
    "mp": "Mr Stephen Hepburn MP",
    "party": "Labour",
    "constituency": "Jarrow",
    "ons_code": "E14000765"
  },
  "E14000534": {
    "mp": "Rt Hon Nick Herbert MP",
    "party": "Conservative",
    "constituency": "Arundel and South Downs",
    "ons_code": "E14000534"
  },
  "N06000013": {
    "mp": "Lady Hermon MP",
    "party": "Independent",
    "constituency": "North Down",
    "ons_code": "N06000013"
  },
  "E14000733": {
    "mp": "Mike Hill MP",
    "party": "Labour",
    "constituency": "Hartlepool",
    "ons_code": "E14000733"
  },
  "E14000721": {
    "mp": "Meg Hillier MP",
    "party": "Labour/Co-operative",
    "constituency": "Hackney South and Shoreditch",
    "ons_code": "E14000721"
  },
  "E14000680": {
    "mp": "Damian Hinds MP",
    "party": "Conservative",
    "constituency": "East Hampshire",
    "ons_code": "E14000680"
  },
  "E14000839": {
    "mp": "Simon Hoare MP",
    "party": "Conservative",
    "constituency": "North Dorset",
    "ons_code": "E14000839"
  },
  "E14000547": {
    "mp": "Wera Hobhouse MP",
    "party": "Liberal Democrat",
    "constituency": "Bath",
    "ons_code": "E14000547"
  },
  "E14000540": {
    "mp": "Rt Hon Dame Margaret Hodge MP",
    "party": "Labour",
    "constituency": "Barking",
    "ons_code": "E14000540"
  },
  "E14001020": {
    "mp": "Mrs Sharon Hodgson MP",
    "party": "Labour",
    "constituency": "Washington and Sunderland West",
    "ons_code": "E14001020"
  },
  "E14001008": {
    "mp": "Kate Hoey MP",
    "party": "Labour",
    "constituency": "Vauxhall",
    "ons_code": "E14001008"
  },
  "E14000570": {
    "mp": "Kate Hollern MP",
    "party": "Labour",
    "constituency": "Blackburn",
    "ons_code": "E14000570"
  },
  "E14000811": {
    "mp": "George Hollingbery MP",
    "party": "Conservative",
    "constituency": "Meon Valley",
    "ons_code": "E14000811"
  },
  "E14000993": {
    "mp": "Kevin Hollinrake MP",
    "party": "Conservative",
    "constituency": "Thirsk and Malton",
    "ons_code": "E14000993"
  },
  "E14000769": {
    "mp": "Mr Philip Hollobone MP",
    "party": "Conservative",
    "constituency": "Kettering",
    "ons_code": "E14000769"
  },
  "E14000715": {
    "mp": "Adam Holloway MP",
    "party": "Conservative",
    "constituency": "Gravesham",
    "ons_code": "E14000715"
  },
  "E14000800": {
    "mp": "Kelvin Hopkins MP",
    "party": "Labour",
    "constituency": "Luton North",
    "ons_code": "E14000800"
  },
  "S14000015": {
    "mp": "Stewart Hosie MP",
    "party": "Scottish National Party",
    "constituency": "Dundee East",
    "ons_code": "S14000015"
  },
  "E14000775": {
    "mp": "Rt Hon George Howarth MP",
    "party": "Labour",
    "constituency": "Knowsley",
    "ons_code": "E14000775"
  },
  "E14000742": {
    "mp": "John Howell MP",
    "party": "Conservative",
    "constituency": "Henley",
    "ons_code": "E14000742"
  },
  "E14000637": {
    "mp": "Rt Hon Lindsay Hoyle MP",
    "party": "Labour",
    "constituency": "Chorley",
    "ons_code": "E14000637"
  },
  "E14000818": {
    "mp": "Nigel Huddleston MP",
    "party": "Conservative",
    "constituency": "Mid Worcestershire",
    "ons_code": "E14000818"
  },
  "E14001011": {
    "mp": "Eddie Hughes MP",
    "party": "Conservative",
    "constituency": "Walsall North",
    "ons_code": "E14001011"
  },
  "E14000953": {
    "mp": "Rt Hon Jeremy Hunt MP",
    "party": "Conservative",
    "constituency": "South West Surrey",
    "ons_code": "E14000953"
  },
  "E14000674": {
    "mp": "Dr Rupa Huq MP",
    "party": "Labour",
    "constituency": "Ealing Central and Acton",
    "ons_code": "E14000674"
  },
  "E14000906": {
    "mp": "Mr Nick Hurd MP",
    "party": "Conservative",
    "constituency": "Ruislip, Northwood and Pinner",
    "ons_code": "E14000906"
  },
  "E14000587": {
    "mp": "Imran Hussain MP",
    "party": "Labour",
    "constituency": "Bradford East",
    "ons_code": "E14000587"
  },
  "S14000013": {
    "mp": "Mr Alister Jack MP",
    "party": "Conservative",
    "constituency": "Dumfries and Galloway",
    "ons_code": "S14000013"
  },
  "E14000976": {
    "mp": "Margot James MP",
    "party": "Conservative",
    "constituency": "Stourbridge",
    "ons_code": "E14000976"
  },
  "S14000026": {
    "mp": "Christine Jardine MP",
    "party": "Liberal Democrat",
    "constituency": "Edinburgh West",
    "ons_code": "S14000026"
  },
  "E14000541": {
    "mp": "Dan Jarvis MP",
    "party": "Labour",
    "constituency": "Barnsley Central",
    "ons_code": "E14000541"
  },
  "E14000605": {
    "mp": "Rt Hon Sajid Javid MP",
    "party": "Conservative",
    "constituency": "Bromsgrove",
    "ons_code": "E14000605"
  },
  "E14000844": {
    "mp": "Mr Ranil Jayawardena MP",
    "party": "Conservative",
    "constituency": "North East Hampshire",
    "ons_code": "E14000844"
  },
  "E14000734": {
    "mp": "Mr Bernard Jenkin MP",
    "party": "Conservative",
    "constituency": "Harwich and North Essex",
    "ons_code": "E14000734"
  },
  "E14000826": {
    "mp": "Andrea Jenkyns MP",
    "party": "Conservative",
    "constituency": "Morley and Outwood",
    "ons_code": "E14000826"
  },
  "E14000829": {
    "mp": "Robert Jenrick MP",
    "party": "Conservative",
    "constituency": "Newark",
    "ons_code": "E14000829"
  },
  "E14001007": {
    "mp": "Rt Hon Boris Johnson MP",
    "party": "Conservative",
    "constituency": "Uxbridge and South Ruislip",
    "ons_code": "E14001007"
  },
  "E14000929": {
    "mp": "Dr Caroline Johnson MP",
    "party": "Conservative",
    "constituency": "Sleaford and North Hykeham",
    "ons_code": "E14000929"
  },
  "E14000772": {
    "mp": "Diana Johnson MP",
    "party": "Labour",
    "constituency": "Kingston upon Hull North",
    "ons_code": "E14000772"
  },
  "E14000659": {
    "mp": "Gareth Johnson MP",
    "party": "Conservative",
    "constituency": "Dartford",
    "ons_code": "E14000659"
  },
  "E14000872": {
    "mp": "Joseph Johnson MP",
    "party": "Conservative",
    "constituency": "Orpington",
    "ons_code": "E14000872"
  },
  "E14000730": {
    "mp": "Andrew Jones MP",
    "party": "Conservative",
    "constituency": "Harrogate and Knaresborough",
    "ons_code": "E14000730"
  },
  "E14000600": {
    "mp": "Darren Jones MP",
    "party": "Labour",
    "constituency": "Bristol North West",
    "ons_code": "E14000600"
  },
  "W07000059": {
    "mp": "Rt Hon David Jones MP",
    "party": "Conservative",
    "constituency": "Clwyd West",
    "ons_code": "W07000059"
  },
  "W07000071": {
    "mp": "Gerald Jones MP",
    "party": "Labour",
    "constituency": "Merthyr Tydfil and Rhymney",
    "ons_code": "W07000071"
  },
  "E14000758": {
    "mp": "Graham P Jones MP",
    "party": "Labour",
    "constituency": "Hyndburn",
    "ons_code": "E14000758"
  },
  "E14001017": {
    "mp": "Helen Jones MP",
    "party": "Labour",
    "constituency": "Warrington North",
    "ons_code": "E14001017"
  },
  "E14000840": {
    "mp": "Mr Kevan Jones MP",
    "party": "Labour",
    "constituency": "North Durham",
    "ons_code": "E14000840"
  },
  "E14000868": {
    "mp": "Mr Marcus Jones MP",
    "party": "Conservative",
    "constituency": "Nuneaton",
    "ons_code": "E14000868"
  },
  "E14000654": {
    "mp": "Sarah Jones MP",
    "party": "Labour",
    "constituency": "Croydon Central",
    "ons_code": "E14000654"
  },
  "W07000062": {
    "mp": "Susan Elan Jones MP",
    "party": "Labour",
    "constituency": "Clwyd South",
    "ons_code": "W07000062"
  },
  "E14001059": {
    "mp": "Mike Kane MP",
    "party": "Labour",
    "constituency": "Wythenshawe and Sale East",
    "ons_code": "E14001059"
  },
  "E14000926": {
    "mp": "Daniel Kawczynski MP",
    "party": "Conservative",
    "constituency": "Shrewsbury and Atcham",
    "ons_code": "E14000926"
  },
  "E14000633": {
    "mp": "Gillian Keegan MP",
    "party": "Conservative",
    "constituency": "Chichester",
    "ons_code": "E14000633"
  },
  "E14001054": {
    "mp": "Barbara Keeley MP",
    "party": "Labour",
    "constituency": "Worsley and Eccles South",
    "ons_code": "E14001054"
  },
  "E14000784": {
    "mp": "Liz Kendall MP",
    "party": "Labour",
    "constituency": "Leicester West",
    "ons_code": "E14000784"
  },
  "E14000943": {
    "mp": "Seema Kennedy MP",
    "party": "Conservative",
    "constituency": "South Ribble",
    "ons_code": "E14000943"
  },
  "S14000057": {
    "mp": "Stephen Kerr MP",
    "party": "Conservative",
    "constituency": "Stirling",
    "ons_code": "S14000057"
  },
  "E14000808": {
    "mp": "Afzal Khan MP",
    "party": "Labour",
    "constituency": "Manchester, Gorton",
    "ons_code": "E14000808"
  },
  "S14000056": {
    "mp": "Gerard Killen MP",
    "party": "Labour/Co-operative",
    "constituency": "Rutherglen and Hamilton West",
    "ons_code": "S14000056"
  },
  "W07000049": {
    "mp": "Stephen Kinnock MP",
    "party": "Labour",
    "constituency": "Aberavon",
    "ons_code": "W07000049"
  },
  "E14000683": {
    "mp": "Rt Hon Sir Greg Knight MP",
    "party": "Conservative",
    "constituency": "East Yorkshire",
    "ons_code": "E14000683"
  },
  "E14000931": {
    "mp": "Julian Knight MP",
    "party": "Conservative",
    "constituency": "Solihull",
    "ons_code": "E14000931"
  },
  "E14000959": {
    "mp": "Kwasi Kwarteng MP",
    "party": "Conservative",
    "constituency": "Spelthorne",
    "ons_code": "E14000959"
  },
  "E14000755": {
    "mp": "Peter Kyle MP",
    "party": "Labour",
    "constituency": "Hove",
    "ons_code": "E14000755"
  },
  "E14000693": {
    "mp": "Mrs Eleanor Laing MP",
    "party": "Conservative",
    "constituency": "Epping Forest",
    "ons_code": "E14000693"
  },
  "S14000041": {
    "mp": "Lesley Laird MP",
    "party": "Labour",
    "constituency": "Kirkcaldy and Cowdenbeath",
    "ons_code": "S14000041"
  },
  "W07000064": {
    "mp": "Ben Lake MP",
    "party": "Plaid Cymru",
    "constituency": "Ceredigion",
    "ons_code": "W07000064"
  },
  "E14000848": {
    "mp": "Rt Hon Norman Lamb MP",
    "party": "Liberal Democrat",
    "constituency": "North Norfolk",
    "ons_code": "E14000848"
  },
  "E14001002": {
    "mp": "Rt Hon David Lammy MP",
    "party": "Labour",
    "constituency": "Tottenham",
    "ons_code": "E14001002"
  },
  "S14000008": {
    "mp": "John Lamont MP",
    "party": "Conservative",
    "constituency": "Berwickshire, Roxburgh and Selkirk",
    "ons_code": "S14000008"
  },
  "E14000821": {
    "mp": "Mark Lancaster MP",
    "party": "Conservative",
    "constituency": "Milton Keynes North",
    "ons_code": "E14000821"
  },
  "E14000814": {
    "mp": "Mrs Pauline Latham MP",
    "party": "Conservative",
    "constituency": "Mid Derbyshire",
    "ons_code": "E14000814"
  },
  "E14001014": {
    "mp": "Ian Lavery MP",
    "party": "Labour",
    "constituency": "Wansbeck",
    "ons_code": "E14001014"
  },
  "S14000016": {
    "mp": "Chris Law MP",
    "party": "Scottish National Party",
    "constituency": "Dundee West",
    "ons_code": "S14000016"
  },
  "E14000942": {
    "mp": "Rt Hon Andrea Leadsom MP",
    "party": "Conservative",
    "constituency": "South Northamptonshire",
    "ons_code": "E14000942"
  },
  "E14000792": {
    "mp": "Ms Karen Lee MP",
    "party": "Labour",
    "constituency": "Lincoln",
    "ons_code": "E14000792"
  },
  "E14000586": {
    "mp": "Dr Phillip Lee MP",
    "party": "Conservative",
    "constituency": "Bracknell",
    "ons_code": "E14000586"
  },
  "E14000965": {
    "mp": "Jeremy Lefroy MP",
    "party": "Conservative",
    "constituency": "Stafford",
    "ons_code": "E14000965"
  },
  "E14000707": {
    "mp": "Sir Edward Leigh MP",
    "party": "Conservative",
    "constituency": "Gainsborough",
    "ons_code": "E14000707"
  },
  "E14000865": {
    "mp": "Mr Chris Leslie MP",
    "party": "Labour/Co-operative",
    "constituency": "Nottingham East",
    "ons_code": "E14000865"
  },
  "E14001031": {
    "mp": "Rt Hon Sir Oliver Letwin MP",
    "party": "Conservative",
    "constituency": "West Dorset",
    "ons_code": "E14001031"
  },
  "E14000944": {
    "mp": "Mrs Emma Lewell-Buck MP",
    "party": "Labour",
    "constituency": "South Shields",
    "ons_code": "E14000944"
  },
  "E14000862": {
    "mp": "Andrew Lewer MP",
    "party": "Conservative",
    "constituency": "Northampton South",
    "ons_code": "E14000862"
  },
  "E14000717": {
    "mp": "Rt Hon Brandon Lewis MP",
    "party": "Conservative",
    "constituency": "Great Yarmouth",
    "ons_code": "E14000717"
  },
  "E14000864": {
    "mp": "Clive Lewis MP",
    "party": "Labour",
    "constituency": "Norwich South",
    "ons_code": "E14000864"
  },
  "E14000612": {
    "mp": "Mr Ivan Lewis MP",
    "party": "Labour",
    "constituency": "Bury South",
    "ons_code": "E14000612"
  },
  "E14000827": {
    "mp": "Rt Hon Dr Julian Lewis MP",
    "party": "Conservative",
    "constituency": "New Forest East",
    "ons_code": "E14000827"
  },
  "E14000595": {
    "mp": "Mr Ian Liddell-Grainger MP",
    "party": "Conservative",
    "constituency": "Bridgwater and West Somerset",
    "ons_code": "E14000595"
  },
  "E14000538": {
    "mp": "Rt Hon David Lidington MP",
    "party": "Conservative",
    "constituency": "Aylesbury",
    "ons_code": "E14000538"
  },
  "S14000030": {
    "mp": "David Linden MP",
    "party": "Scottish National Party",
    "constituency": "Glasgow East",
    "ons_code": "S14000030"
  },
  "N06000003": {
    "mp": "Emma Little Pengelly MP",
    "party": "Democratic Unionist Party",
    "constituency": "Belfast South",
    "ons_code": "N06000003"
  },
  "E14000684": {
    "mp": "Stephen Lloyd MP",
    "party": "Liberal Democrat",
    "constituency": "Eastbourne",
    "ons_code": "E14000684"
  },
  "E14000897": {
    "mp": "Tony Lloyd MP",
    "party": "Labour",
    "constituency": "Rochdale",
    "ons_code": "E14000897"
  },
  "E14000911": {
    "mp": "Rebecca Long Bailey MP",
    "party": "Labour",
    "constituency": "Salford and Eccles",
    "ons_code": "E14000911"
  },
  "E14000702": {
    "mp": "Jack Lopresti MP",
    "party": "Conservative",
    "constituency": "Filton and Bradley Stoke",
    "ons_code": "E14000702"
  },
  "E14001047": {
    "mp": "Mr Jonathan Lord MP",
    "party": "Conservative",
    "constituency": "Woking",
    "ons_code": "E14001047"
  },
  "E14000682": {
    "mp": "Tim Loughton MP",
    "party": "Conservative",
    "constituency": "East Worthing and Shoreham",
    "ons_code": "E14000682"
  },
  "E14000598": {
    "mp": "Caroline Lucas MP",
    "party": "Green Party",
    "constituency": "Brighton, Pavilion",
    "ons_code": "E14000598"
  },
  "W07000044": {
    "mp": "Ian C. Lucas MP",
    "party": "Labour",
    "constituency": "Wrexham",
    "ons_code": "W07000044"
  },
  "E14000723": {
    "mp": "Holly Lynch MP",
    "party": "Labour",
    "constituency": "Halifax",
    "ons_code": "E14000723"
  },
  "E14000567": {
    "mp": "Steve McCabe MP",
    "party": "Labour",
    "constituency": "Birmingham, Selly Oak",
    "ons_code": "E14000567"
  },
  "N06000008": {
    "mp": "Elisha McCallion MP",
    "party": "Sinn Féin",
    "constituency": "Foyle",
    "ons_code": "N06000008"
  },
  "E14000599": {
    "mp": "Kerry McCarthy MP",
    "party": "Labour",
    "constituency": "Bristol East",
    "ons_code": "E14000599"
  },
  "E14000823": {
    "mp": "Siobhain McDonagh MP",
    "party": "Labour",
    "constituency": "Mitcham and Morden",
    "ons_code": "E14000823"
  },
  "E14000819": {
    "mp": "Andy McDonald MP",
    "party": "Labour",
    "constituency": "Middlesbrough",
    "ons_code": "E14000819"
  },
  "S14000034": {
    "mp": "Stewart Malcolm McDonald MP",
    "party": "Scottish National Party",
    "constituency": "Glasgow South",
    "ons_code": "S14000034"
  },
  "S14000012": {
    "mp": "Stuart C. McDonald MP",
    "party": "Scottish National Party",
    "constituency": "Cumbernauld, Kilsyth and Kirkintilloch East",
    "ons_code": "S14000012"
  },
  "E14000737": {
    "mp": "Rt Hon John McDonnell MP",
    "party": "Labour",
    "constituency": "Hayes and Harlington",
    "ons_code": "E14000737"
  },
  "N06000018": {
    "mp": "Barry McElduff MP",
    "party": "Sinn Féin",
    "constituency": "West Tyrone",
    "ons_code": "N06000018"
  },
  "E14001050": {
    "mp": "Rt Hon Pat McFadden MP",
    "party": "Labour",
    "constituency": "Wolverhampton South East",
    "ons_code": "E14001050"
  },
  "E14000962": {
    "mp": "Conor McGinn MP",
    "party": "Labour",
    "constituency": "St Helens North",
    "ons_code": "E14000962"
  },
  "E14001043": {
    "mp": "Alison McGovern MP",
    "party": "Labour",
    "constituency": "Wirral South",
    "ons_code": "E14001043"
  },
  "E14000747": {
    "mp": "Liz McInnes MP",
    "party": "Labour",
    "constituency": "Heywood and Middleton",
    "ons_code": "E14000747"
  },
  "E14000948": {
    "mp": "Craig Mackinlay MP",
    "party": "Conservative",
    "constituency": "South Thanet",
    "ons_code": "E14000948"
  },
  "E14000833": {
    "mp": "Catherine McKinnell MP",
    "party": "Labour",
    "constituency": "Newcastle upon Tyne North",
    "ons_code": "E14000833"
  },
  "E14000892": {
    "mp": "Rachel Maclean MP",
    "party": "Conservative",
    "constituency": "Redditch",
    "ons_code": "E14000892"
  },
  "E14000664": {
    "mp": "Rt Hon Sir Patrick McLoughlin MP",
    "party": "Conservative",
    "constituency": "Derbyshire Dales",
    "ons_code": "E14000664"
  },
  "E14000871": {
    "mp": "Jim McMahon MP",
    "party": "Labour/Co-operative",
    "constituency": "Oldham West and Royton",
    "ons_code": "E14000871"
  },
  "W07000051": {
    "mp": "Anna McMorrin MP",
    "party": "Labour",
    "constituency": "Cardiff North",
    "ons_code": "W07000051"
  },
  "S14000028": {
    "mp": "John McNally MP",
    "party": "Scottish National Party",
    "constituency": "Falkirk",
    "ons_code": "S14000028"
  },
  "S14000027": {
    "mp": "Angus Brendan MacNeil MP",
    "party": "Scottish National Party",
    "constituency": "Na h-Eileanan an Iar",
    "ons_code": "S14000027"
  },
  "E14000968": {
    "mp": "Stephen McPartland MP",
    "party": "Conservative",
    "constituency": "Stevenage",
    "ons_code": "E14000968"
  },
  "E14000987": {
    "mp": "Rt Hon Esther McVey MP",
    "party": "Conservative",
    "constituency": "Tatton",
    "ons_code": "E14000987"
  },
  "E14000688": {
    "mp": "Justin Madders MP",
    "party": "Labour",
    "constituency": "Ellesmere Port and Neston",
    "ons_code": "E14000688"
  },
  "E14000566": {
    "mp": "Mr Khalid Mahmood MP",
    "party": "Labour",
    "constituency": "Birmingham, Perry Barr",
    "ons_code": "E14000566"
  },
  "E14000564": {
    "mp": "Shabana Mahmood MP",
    "party": "Labour",
    "constituency": "Birmingham, Ladywood",
    "ons_code": "E14000564"
  },
  "E14000960": {
    "mp": "Mrs Anne Main MP",
    "party": "Conservative",
    "constituency": "St Albans",
    "ons_code": "E14000960"
  },
  "E14000736": {
    "mp": "Alan Mak MP",
    "party": "Conservative",
    "constituency": "Havant",
    "ons_code": "E14000736"
  },
  "E14000701": {
    "mp": "Seema Malhotra MP",
    "party": "Labour/Co-operative",
    "constituency": "Feltham and Heston",
    "ons_code": "E14000701"
  },
  "E14000857": {
    "mp": "Kit Malthouse MP",
    "party": "Conservative",
    "constituency": "North West Hampshire",
    "ons_code": "E14000857"
  },
  "E14000546": {
    "mp": "John Mann MP",
    "party": "Labour",
    "constituency": "Bassetlaw",
    "ons_code": "E14000546"
  },
  "E14000837": {
    "mp": "Scott Mann MP",
    "party": "Conservative",
    "constituency": "North Cornwall",
    "ons_code": "E14000837"
  },
  "E14000573": {
    "mp": "Gordon Marsden MP",
    "party": "Labour",
    "constituency": "Blackpool South",
    "ons_code": "E14000573"
  },
  "E14000761": {
    "mp": "Sandy Martin MP",
    "party": "Labour",
    "constituency": "Ipswich",
    "ons_code": "E14000761"
  },
  "E14001061": {
    "mp": "Rachael Maskell MP",
    "party": "Labour/Co-operative",
    "constituency": "York Central",
    "ons_code": "E14001061"
  },
  "N06000004": {
    "mp": "Paul Maskey MP",
    "party": "Sinn Féin",
    "constituency": "Belfast West",
    "ons_code": "N06000004"
  },
  "S14000021": {
    "mp": "Paul Masterton MP",
    "party": "Conservative",
    "constituency": "East Renfrewshire",
    "ons_code": "S14000021"
  },
  "E14000640": {
    "mp": "Christian Matheson MP",
    "party": "Labour",
    "constituency": "City of Chester",
    "ons_code": "E14000640"
  },
  "E14000803": {
    "mp": "Rt Hon Theresa May MP",
    "party": "Conservative",
    "constituency": "Maidenhead",
    "ons_code": "E14000803"
  },
  "E14000572": {
    "mp": "Paul Maynard MP",
    "party": "Conservative",
    "constituency": "Blackpool North and Cleveleys",
    "ons_code": "E14000572"
  },
  "E14000709": {
    "mp": "Ian Mearns MP",
    "party": "Labour",
    "constituency": "Gateshead",
    "ons_code": "E14000709"
  },
  "E14000706": {
    "mp": "Mark Menzies MP",
    "party": "Conservative",
    "constituency": "Fylde",
    "ons_code": "E14000706"
  },
  "E14000879": {
    "mp": "Johnny Mercer MP",
    "party": "Conservative",
    "constituency": "Plymouth, Moor View",
    "ons_code": "E14000879"
  },
  "E14000557": {
    "mp": "Huw Merriman MP",
    "party": "Conservative",
    "constituency": "Bexhill and Battle",
    "ons_code": "E14000557"
  },
  "E14000933": {
    "mp": "Stephen Metcalfe MP",
    "party": "Conservative",
    "constituency": "South Basildon and East Thurrock",
    "ons_code": "E14000933"
  },
  "E14000669": {
    "mp": "Rt Hon Edward Miliband MP",
    "party": "Labour",
    "constituency": "Doncaster North",
    "ons_code": "E14000669"
  },
  "E14000545": {
    "mp": "Rt Hon Maria Miller MP",
    "party": "Conservative",
    "constituency": "Basingstoke",
    "ons_code": "E14000545"
  },
  "E14000618": {
    "mp": "Amanda Milling MP",
    "party": "Conservative",
    "constituency": "Cannock Chase",
    "ons_code": "E14000618"
  },
  "E14000533": {
    "mp": "Nigel Mills MP",
    "party": "Conservative",
    "constituency": "Amber Valley",
    "ons_code": "E14000533"
  },
  "E14000719": {
    "mp": "Rt Hon Anne Milton MP",
    "party": "Conservative",
    "constituency": "Guildford",
    "ons_code": "E14000719"
  },
  "E14000985": {
    "mp": "Rt Hon Andrew Mitchell MP",
    "party": "Conservative",
    "constituency": "Sutton Coldfield",
    "ons_code": "E14000985"
  },
  "N06000010": {
    "mp": "Francie Molloy MP",
    "party": "Sinn Féin",
    "constituency": "Mid Ulster",
    "ons_code": "N06000010"
  },
  "S14000033": {
    "mp": "Carol Monaghan MP",
    "party": "Scottish National Party",
    "constituency": "Glasgow North West",
    "ons_code": "S14000033"
  },
  "W07000073": {
    "mp": "Mrs Madeleine Moon MP",
    "party": "Labour",
    "constituency": "Bridgend",
    "ons_code": "W07000073"
  },
  "E14000958": {
    "mp": "Damien Moore MP",
    "party": "Conservative",
    "constituency": "Southport",
    "ons_code": "E14000958"
  },
  "E14000874": {
    "mp": "Layla Moran MP",
    "party": "Liberal Democrat",
    "constituency": "Oxford West and Abingdon",
    "ons_code": "E14000874"
  },
  "E14000883": {
    "mp": "Penny Mordaunt MP",
    "party": "Conservative",
    "constituency": "Portsmouth North",
    "ons_code": "E14000883"
  },
  "W07000055": {
    "mp": "Jessica Morden MP",
    "party": "Labour",
    "constituency": "Newport East",
    "ons_code": "W07000055"
  },
  "E14000797": {
    "mp": "Rt Hon Nicky Morgan MP",
    "party": "Conservative",
    "constituency": "Loughborough",
    "ons_code": "E14000797"
  },
  "E14000884": {
    "mp": "Stephen Morgan MP",
    "party": "Labour",
    "constituency": "Portsmouth South",
    "ons_code": "E14000884"
  },
  "E14000835": {
    "mp": "Anne Marie Morris MP",
    "party": "Independent",
    "constituency": "Newton Abbot",
    "ons_code": "E14000835"
  },
  "E14000825": {
    "mp": "David Morris MP",
    "party": "Conservative",
    "constituency": "Morecambe and Lunesdale",
    "ons_code": "E14000825"
  },
  "E14000677": {
    "mp": "Grahame Morris MP",
    "party": "Labour",
    "constituency": "Easington",
    "ons_code": "E14000677"
  },
  "E14000722": {
    "mp": "James Morris MP",
    "party": "Conservative",
    "constituency": "Halesowen and Rowley Regis",
    "ons_code": "E14000722"
  },
  "E14000531": {
    "mp": "Wendy Morton MP",
    "party": "Conservative",
    "constituency": "Aldridge-Brownhills",
    "ons_code": "E14000531"
  },
  "S14000014": {
    "mp": "Rt Hon David Mundell MP",
    "party": "Conservative",
    "constituency": "Dumfriesshire, Clydesdale and Tweeddale",
    "ons_code": "S14000014"
  },
  "S14000024": {
    "mp": "Ian Murray MP",
    "party": "Labour",
    "constituency": "Edinburgh South",
    "ons_code": "S14000024"
  },
  "E14000938": {
    "mp": "Mrs Sheryll Murray MP",
    "party": "Conservative",
    "constituency": "South East Cornwall",
    "ons_code": "E14000938"
  },
  "E14000954": {
    "mp": "Dr Andrew Murrison MP",
    "party": "Conservative",
    "constituency": "South West Wiltshire",
    "ons_code": "E14000954"
  },
  "E14001039": {
    "mp": "Lisa Nandy MP",
    "party": "Labour",
    "constituency": "Wigan",
    "ons_code": "E14001039"
  },
  "E14000604": {
    "mp": "Robert Neill MP",
    "party": "Conservative",
    "constituency": "Bromley and Chislehurst",
    "ons_code": "E14000604"
  },
  "S14000052": {
    "mp": "Gavin Newlands MP",
    "party": "Scottish National Party",
    "constituency": "Paisley and Renfrewshire North",
    "ons_code": "S14000052"
  },
  "E14001003": {
    "mp": "Sarah Newton MP",
    "party": "Conservative",
    "constituency": "Truro and Falmouth",
    "ons_code": "E14001003"
  },
  "E14000901": {
    "mp": "Caroline Nokes MP",
    "party": "Conservative",
    "constituency": "Romsey and Southampton North",
    "ons_code": "E14000901"
  },
  "E14000743": {
    "mp": "Jesse Norman MP",
    "party": "Conservative",
    "constituency": "Hereford and South Herefordshire",
    "ons_code": "E14000743"
  },
  "E14000866": {
    "mp": "Alex Norris MP",
    "party": "Labour/Co-operative",
    "constituency": "Nottingham North",
    "ons_code": "E14000866"
  },
  "E14000728": {
    "mp": "Neil O'Brien MP",
    "party": "Conservative",
    "constituency": "Harborough",
    "ons_code": "E14000728"
  },
  "E14000741": {
    "mp": "Dr Matthew Offord MP",
    "party": "Conservative",
    "constituency": "Hendon",
    "ons_code": "E14000741"
  },
  "S14000005": {
    "mp": "Brendan O'Hara MP",
    "party": "Scottish National Party",
    "constituency": "Argyll and Bute",
    "ons_code": "S14000005"
  },
  "E14000922": {
    "mp": "Jared O'Mara MP",
    "party": "Labour",
    "constituency": "Sheffield, Hallam",
    "ons_code": "E14000922"
  },
  "E14000878": {
    "mp": "Fiona Onasanya MP",
    "party": "Labour",
    "constituency": "Peterborough",
    "ons_code": "E14000878"
  },
  "E14000716": {
    "mp": "Melanie Onn MP",
    "party": "Labour",
    "constituency": "Great Grimsby",
    "ons_code": "E14000716"
  },
  "E14000831": {
    "mp": "Chi Onwurah MP",
    "party": "Labour",
    "constituency": "Newcastle upon Tyne Central",
    "ons_code": "E14000831"
  },
  "E14000746": {
    "mp": "Guy Opperman MP",
    "party": "Conservative",
    "constituency": "Hexham",
    "ons_code": "E14000746"
  },
  "E14000687": {
    "mp": "Kate Osamor MP",
    "party": "Labour/Co-operative",
    "constituency": "Edmonton",
    "ons_code": "E14000687"
  },
  "W07000041": {
    "mp": "Albert Owen MP",
    "party": "Labour",
    "constituency": "Ynys Môn",
    "ons_code": "W07000041"
  },
  "N06000012": {
    "mp": "Ian Paisley MP",
    "party": "Democratic Unionist Party",
    "constituency": "North Antrim",
    "ons_code": "N06000012"
  },
  "E14000996": {
    "mp": "Neil Parish MP",
    "party": "Conservative",
    "constituency": "Tiverton and Honiton",
    "ons_code": "E14000996"
  },
  "E14001045": {
    "mp": "Rt Hon Priti Patel MP",
    "party": "Conservative",
    "constituency": "Witham",
    "ons_code": "E14001045"
  },
  "E14000849": {
    "mp": "Rt Hon Owen Paterson MP",
    "party": "Conservative",
    "constituency": "North Shropshire",
    "ons_code": "E14000849"
  },
  "E14000905": {
    "mp": "Mark Pawsey MP",
    "party": "Conservative",
    "constituency": "Rugby",
    "ons_code": "E14000905"
  },
  "E14000542": {
    "mp": "Stephanie Peacock MP",
    "party": "Labour",
    "constituency": "Barnsley East",
    "ons_code": "E14000542"
  },
  "E14000696": {
    "mp": "Teresa Pearce MP",
    "party": "Labour",
    "constituency": "Erith and Thamesmead",
    "ons_code": "E14000696"
  },
  "E14000739": {
    "mp": "Rt Hon Mike Penning MP",
    "party": "Conservative",
    "constituency": "Hemel Hempstead",
    "ons_code": "E14000739"
  },
  "E14000718": {
    "mp": "Matthew Pennycook MP",
    "party": "Labour",
    "constituency": "Greenwich and Woolwich",
    "ons_code": "E14000718"
  },
  "E14001038": {
    "mp": "John Penrose MP",
    "party": "Conservative",
    "constituency": "Weston-super-Mare",
    "ons_code": "E14001038"
  },
  "E14000596": {
    "mp": "Andrew Percy MP",
    "party": "Conservative",
    "constituency": "Brigg and Goole",
    "ons_code": "E14000596"
  },
  "E14000632": {
    "mp": "Toby Perkins MP",
    "party": "Labour",
    "constituency": "Chesterfield",
    "ons_code": "E14000632"
  },
  "E14000665": {
    "mp": "Claire Perry MP",
    "party": "Conservative",
    "constituency": "Devizes",
    "ons_code": "E14000665"
  },
  "E14000568": {
    "mp": "Jess Phillips MP",
    "party": "Labour",
    "constituency": "Birmingham, Yardley",
    "ons_code": "E14000568"
  },
  "E14000754": {
    "mp": "Bridget Phillipson MP",
    "party": "Labour",
    "constituency": "Houghton and Sunderland South",
    "ons_code": "E14000754"
  },
  "E14000656": {
    "mp": "Chris Philp MP",
    "party": "Conservative",
    "constituency": "Croydon South",
    "ons_code": "E14000656"
  },
  "E14000856": {
    "mp": "Laura Pidcock MP",
    "party": "Labour",
    "constituency": "North West Durham",
    "ons_code": "E14000856"
  },
  "E14000986": {
    "mp": "Christopher Pincher MP",
    "party": "Conservative",
    "constituency": "Tamworth",
    "ons_code": "E14000986"
  },
  "E14000785": {
    "mp": "Jo Platt MP",
    "party": "Labour/Co-operative",
    "constituency": "Leigh",
    "ons_code": "E14000785"
  },
  "E14000880": {
    "mp": "Luke Pollard MP",
    "party": "Labour/Co-operative",
    "constituency": "Plymouth, Sutton and Devonport",
    "ons_code": "E14000880"
  },
  "E14000624": {
    "mp": "Dr Dan Poulter MP",
    "party": "Conservative",
    "constituency": "Central Suffolk and North Ipswich",
    "ons_code": "E14000624"
  },
  "E14000675": {
    "mp": "Stephen Pound MP",
    "party": "Labour",
    "constituency": "Ealing North",
    "ons_code": "E14000675"
  },
  "E14000988": {
    "mp": "Rebecca Pow MP",
    "party": "Conservative",
    "constituency": "Taunton Deane",
    "ons_code": "E14000988"
  },
  "E14000807": {
    "mp": "Lucy Powell MP",
    "party": "Labour/Co-operative",
    "constituency": "Manchester Central",
    "ons_code": "E14000807"
  },
  "E14000539": {
    "mp": "Victoria Prentis MP",
    "party": "Conservative",
    "constituency": "Banbury",
    "ons_code": "E14000539"
  },
  "E14000744": {
    "mp": "Mr Mark Prisk MP",
    "party": "Conservative",
    "constituency": "Hertford and Stortford",
    "ons_code": "E14000744"
  },
  "E14000992": {
    "mp": "Mark Pritchard MP",
    "party": "Conservative",
    "constituency": "The Wrekin",
    "ons_code": "E14000992"
  },
  "E14000648": {
    "mp": "Tom Pursglove MP",
    "party": "Conservative",
    "constituency": "Corby",
    "ons_code": "E14000648"
  },
  "E14000753": {
    "mp": "Jeremy Quin MP",
    "party": "Conservative",
    "constituency": "Horsham",
    "ons_code": "E14000753"
  },
  "E14000644": {
    "mp": "Will Quince MP",
    "party": "Conservative",
    "constituency": "Colchester",
    "ons_code": "E14000644"
  },
  "E14000579": {
    "mp": "Yasmin Qureshi MP",
    "party": "Labour",
    "constituency": "Bolton South East",
    "ons_code": "E14000579"
  },
  "E14000697": {
    "mp": "Dominic Raab MP",
    "party": "Conservative",
    "constituency": "Esher and Walton",
    "ons_code": "E14000697"
  },
  "E14001018": {
    "mp": "Faisal Rashid MP",
    "party": "Labour",
    "constituency": "Warrington South",
    "ons_code": "E14001018"
  },
  "E14000537": {
    "mp": "Angela Rayner MP",
    "party": "Labour",
    "constituency": "Ashton-under-Lyne",
    "ons_code": "E14000537"
  },
  "E14001048": {
    "mp": "Rt Hon John Redwood MP",
    "party": "Conservative",
    "constituency": "Wokingham",
    "ons_code": "E14001048"
  },
  "E14000655": {
    "mp": "Mr Steve Reed MP",
    "party": "Labour/Co-operative",
    "constituency": "Croydon North",
    "ons_code": "E14000655"
  },
  "W07000069": {
    "mp": "Christina Rees MP",
    "party": "Labour/Co-operative",
    "constituency": "Neath",
    "ons_code": "W07000069"
  },
  "E14000846": {
    "mp": "Mr Jacob Rees-Mogg MP",
    "party": "Conservative",
    "constituency": "North East Somerset",
    "ons_code": "E14000846"
  },
  "E14000788": {
    "mp": "Ellie Reeves MP",
    "party": "Labour",
    "constituency": "Lewisham West and Penge",
    "ons_code": "E14000788"
  },
  "E14000781": {
    "mp": "Rachel Reeves MP",
    "party": "Labour",
    "constituency": "Leeds West",
    "ons_code": "E14000781"
  },
  "E14001049": {
    "mp": "Emma Reynolds MP",
    "party": "Labour",
    "constituency": "Wolverhampton North East",
    "ons_code": "E14001049"
  },
  "E14000967": {
    "mp": "Jonathan Reynolds MP",
    "party": "Labour/Co-operative",
    "constituency": "Stalybridge and Hyde",
    "ons_code": "E14000967"
  },
  "E14000963": {
    "mp": "Ms Marie Rimmer MP",
    "party": "Labour",
    "constituency": "St Helens South and Whiston",
    "ons_code": "E14000963"
  },
  "E14000990": {
    "mp": "Mr Laurence Robertson MP",
    "party": "Conservative",
    "constituency": "Tewkesbury",
    "ons_code": "E14000990"
  },
  "N06000001": {
    "mp": "Gavin Robinson MP",
    "party": "Democratic Unionist Party",
    "constituency": "Belfast East",
    "ons_code": "N06000001"
  },
  "E14000650": {
    "mp": "Mr Geoffrey Robinson MP",
    "party": "Labour",
    "constituency": "Coventry North West",
    "ons_code": "E14000650"
  },
  "E14000627": {
    "mp": "Mary Robinson MP",
    "party": "Conservative",
    "constituency": "Cheadle",
    "ons_code": "E14000627"
  },
  "E14000889": {
    "mp": "Matt Rodda MP",
    "party": "Labour",
    "constituency": "Reading East",
    "ons_code": "E14000889"
  },
  "E14000900": {
    "mp": "Andrew Rosindell MP",
    "party": "Conservative",
    "constituency": "Romford",
    "ons_code": "E14000900"
  },
  "S14000046": {
    "mp": "Douglas Ross MP",
    "party": "Conservative",
    "constituency": "Moray",
    "ons_code": "S14000046"
  },
  "S14000045": {
    "mp": "Danielle Rowley MP",
    "party": "Labour",
    "constituency": "Midlothian",
    "ons_code": "S14000045"
  },
  "E14000843": {
    "mp": "Lee Rowley MP",
    "party": "Conservative",
    "constituency": "North East Derbyshire",
    "ons_code": "E14000843"
  },
  "W07000060": {
    "mp": "Chris Ruane MP",
    "party": "Labour",
    "constituency": "Vale of Clwyd",
    "ons_code": "W07000060"
  },
  "E14000735": {
    "mp": "Rt Hon Amber Rudd MP",
    "party": "Conservative",
    "constituency": "Hastings and Rye",
    "ons_code": "E14000735"
  },
  "E14000597": {
    "mp": "Lloyd Russell-Moyle MP",
    "party": "Labour/Co-operative",
    "constituency": "Brighton, Kemptown",
    "ons_code": "E14000597"
  },
  "E14000802": {
    "mp": "David Rutley MP",
    "party": "Conservative",
    "constituency": "Macclesfield",
    "ons_code": "E14000802"
  },
  "E14000691": {
    "mp": "Rt Hon Joan Ryan MP",
    "party": "Labour",
    "constituency": "Enfield North",
    "ons_code": "E14000691"
  },
  "E14000686": {
    "mp": "Antoinette Sandbach MP",
    "party": "Conservative",
    "constituency": "Eddisbury",
    "ons_code": "E14000686"
  },
  "W07000061": {
    "mp": "Liz Saville Roberts MP",
    "party": "Plaid Cymru",
    "constituency": "Dwyfor Meirionnydd",
    "ons_code": "W07000061"
  },
  "E14000984": {
    "mp": "Paul Scully MP",
    "party": "Conservative",
    "constituency": "Sutton and Cheam",
    "ons_code": "E14000984"
  },
  "E14000762": {
    "mp": "Mr Bob Seely MP",
    "party": "Conservative",
    "constituency": "Isle of Wight",
    "ons_code": "E14000762"
  },
  "E14000949": {
    "mp": "Andrew Selous MP",
    "party": "Conservative",
    "constituency": "South West Bedfordshire",
    "ons_code": "E14000949"
  },
  "E14000589": {
    "mp": "Naz Shah MP",
    "party": "Labour",
    "constituency": "Bradford West",
    "ons_code": "E14000589"
  },
  "N06000016": {
    "mp": "Jim Shannon MP",
    "party": "Democratic Unionist Party",
    "constituency": "Strangford",
    "ons_code": "N06000016"
  },
  "E14001027": {
    "mp": "Rt Hon Grant Shapps MP",
    "party": "Conservative",
    "constituency": "Welwyn Hatfield",
    "ons_code": "E14001027"
  },
  "E14000890": {
    "mp": "Alok Sharma MP",
    "party": "Conservative",
    "constituency": "Reading West",
    "ons_code": "E14000890"
  },
  "E14000676": {
    "mp": "Mr Virendra Sharma MP",
    "party": "Labour",
    "constituency": "Ealing, Southall",
    "ons_code": "E14000676"
  },
  "E14000756": {
    "mp": "Mr Barry Sheerman MP",
    "party": "Labour/Co-operative",
    "constituency": "Huddersfield",
    "ons_code": "E14000756"
  },
  "E14000689": {
    "mp": "Alec Shelbrooke MP",
    "party": "Conservative",
    "constituency": "Elmet and Rothwell",
    "ons_code": "E14000689"
  },
  "S14000022": {
    "mp": "Tommy Sheppard MP",
    "party": "Scottish National Party",
    "constituency": "Edinburgh East",
    "ons_code": "S14000022"
  },
  "E14000666": {
    "mp": "Paula Sherriff MP",
    "party": "Labour",
    "constituency": "Dewsbury",
    "ons_code": "E14000666"
  },
  "E14000801": {
    "mp": "Mr Gavin Shuker MP",
    "party": "Labour/Co-operative",
    "constituency": "Luton South",
    "ons_code": "E14000801"
  },
  "E14000727": {
    "mp": "Tulip Siddiq MP",
    "party": "Labour",
    "constituency": "Hampstead and Kilburn",
    "ons_code": "E14000727"
  },
  "N06000017": {
    "mp": "David Simpson MP",
    "party": "Democratic Unionist Party",
    "constituency": "Upper Bann",
    "ons_code": "N06000017"
  },
  "E14000603": {
    "mp": "Rt Hon Keith Simpson MP",
    "party": "Conservative",
    "constituency": "Broadland",
    "ons_code": "E14000603"
  },
  "E14000774": {
    "mp": "Chris Skidmore MP",
    "party": "Conservative",
    "constituency": "Kingswood",
    "ons_code": "E14000774"
  },
  "E14000577": {
    "mp": "Mr Dennis Skinner MP",
    "party": "Labour",
    "constituency": "Bolsover",
    "ons_code": "E14000577"
  },
  "E14000726": {
    "mp": "Andy Slaughter MP",
    "party": "Labour",
    "constituency": "Hammersmith",
    "ons_code": "E14000726"
  },
  "E14000973": {
    "mp": "Ruth Smeeth MP",
    "party": "Labour",
    "constituency": "Stoke-on-Trent North",
    "ons_code": "E14000973"
  },
  "E14000876": {
    "mp": "Angela Smith MP",
    "party": "Labour",
    "constituency": "Penistone and Stocksbridge",
    "ons_code": "E14000876"
  },
  "E14000776": {
    "mp": "Cat Smith MP",
    "party": "Labour",
    "constituency": "Lancaster and Fleetwood",
    "ons_code": "E14000776"
  },
  "E14000863": {
    "mp": "Chloe Smith MP",
    "party": "Conservative",
    "constituency": "Norwich North",
    "ons_code": "E14000863"
  },
  "E14001051": {
    "mp": "Eleanor Smith MP",
    "party": "Labour",
    "constituency": "Wolverhampton South West",
    "ons_code": "E14001051"
  },
  "E14000652": {
    "mp": "Henry Smith MP",
    "party": "Conservative",
    "constituency": "Crawley",
    "ons_code": "E14000652"
  },
  "E14000809": {
    "mp": "Jeff Smith MP",
    "party": "Labour",
    "constituency": "Manchester, Withington",
    "ons_code": "E14000809"
  },
  "E14000928": {
    "mp": "Julian Smith MP",
    "party": "Conservative",
    "constituency": "Skipton and Ripon",
    "ons_code": "E14000928"
  },
  "E14000653": {
    "mp": "Laura Smith MP",
    "party": "Labour",
    "constituency": "Crewe and Nantwich",
    "ons_code": "E14000653"
  },
  "W07000072": {
    "mp": "Nick Smith MP",
    "party": "Labour",
    "constituency": "Blaenau Gwent",
    "ons_code": "W07000072"
  },
  "W07000075": {
    "mp": "Owen Smith MP",
    "party": "Labour",
    "constituency": "Pontypridd",
    "ons_code": "W07000075"
  },
  "E14000955": {
    "mp": "Royston Smith MP",
    "party": "Conservative",
    "constituency": "Southampton, Itchen",
    "ons_code": "E14000955"
  },
  "E14000601": {
    "mp": "Karin Smyth MP",
    "party": "Labour",
    "constituency": "Bristol South",
    "ons_code": "E14000601"
  },
  "E14000972": {
    "mp": "Gareth Snell MP",
    "party": "Labour/Co-operative",
    "constituency": "Stoke-on-Trent Central",
    "ons_code": "E14000972"
  },
  "E14000817": {
    "mp": "Rt Hon Sir Nicholas Soames MP",
    "party": "Conservative",
    "constituency": "Mid Sussex",
    "ons_code": "E14000817"
  },
  "E14000780": {
    "mp": "Alex Sobel MP",
    "party": "Labour/Co-operative",
    "constituency": "Leeds North West",
    "ons_code": "E14000780"
  },
  "E14000607": {
    "mp": "Rt Hon Anna Soubry MP",
    "party": "Conservative",
    "constituency": "Broxtowe",
    "ons_code": "E14000607"
  },
  "E14001016": {
    "mp": "Rt Hon John Spellar MP",
    "party": "Labour",
    "constituency": "Warley",
    "ons_code": "E14001016"
  },
  "E14000812": {
    "mp": "Rt Hon Dame Caroline Spelman MP",
    "party": "Conservative",
    "constituency": "Meriden",
    "ons_code": "E14000812"
  },
  "E14000924": {
    "mp": "Mark Spencer MP",
    "party": "Conservative",
    "constituency": "Sherwood",
    "ons_code": "E14000924"
  },
  "E14000750": {
    "mp": "Rt Hon Keir Starmer MP",
    "party": "Labour",
    "constituency": "Holborn and St Pancras",
    "ons_code": "E14000750"
  },
  "S14000035": {
    "mp": "Chris Stephens MP",
    "party": "Scottish National Party",
    "constituency": "Glasgow South West",
    "ons_code": "S14000035"
  },
  "E14000875": {
    "mp": "Andrew Stephenson MP",
    "party": "Conservative",
    "constituency": "Pendle",
    "ons_code": "E14000875"
  },
  "W07000050": {
    "mp": "Jo Stevens MP",
    "party": "Labour",
    "constituency": "Cardiff Central",
    "ons_code": "W07000050"
  },
  "E14000620": {
    "mp": "John Stevenson MP",
    "party": "Conservative",
    "constituency": "Carlisle",
    "ons_code": "E14000620"
  },
  "E14000551": {
    "mp": "Bob Stewart MP",
    "party": "Conservative",
    "constituency": "Beckenham",
    "ons_code": "E14000551"
  },
  "E14000822": {
    "mp": "Iain Stewart MP",
    "party": "Conservative",
    "constituency": "Milton Keynes South",
    "ons_code": "E14000822"
  },
  "E14000877": {
    "mp": "Rory Stewart MP",
    "party": "Conservative",
    "constituency": "Penrith and The Border",
    "ons_code": "E14000877"
  },
  "S14000009": {
    "mp": "Jamie Stone MP",
    "party": "Liberal Democrat",
    "constituency": "Caithness, Sutherland and Easter Ross",
    "ons_code": "S14000009"
  },
  "E14000950": {
    "mp": "Mr Gary Streeter MP",
    "party": "Conservative",
    "constituency": "South West Devon",
    "ons_code": "E14000950"
  },
  "E14000759": {
    "mp": "Wes Streeting MP",
    "party": "Labour",
    "constituency": "Ilford North",
    "ons_code": "E14000759"
  },
  "E14000623": {
    "mp": "Rt Hon Mel Stride MP",
    "party": "Conservative",
    "constituency": "Central Devon",
    "ons_code": "E14000623"
  },
  "E14000571": {
    "mp": "Graham Stringer MP",
    "party": "Labour",
    "constituency": "Blackley and Broughton",
    "ons_code": "E14000571"
  },
  "E14000556": {
    "mp": "Graham Stuart MP",
    "party": "Conservative",
    "constituency": "Beverley and Holderness",
    "ons_code": "E14000556"
  },
  "E14001062": {
    "mp": "Julian Sturdy MP",
    "party": "Conservative",
    "constituency": "York Outer",
    "ons_code": "E14001062"
  },
  "E14000895": {
    "mp": "Rishi Sunak MP",
    "party": "Conservative",
    "constituency": "Richmond (Yorks)",
    "ons_code": "E14000895"
  },
  "E14000828": {
    "mp": "Rt Hon Sir Desmond Swayne MP",
    "party": "Conservative",
    "constituency": "New Forest West",
    "ons_code": "E14000828"
  },
  "S14000032": {
    "mp": "Mr Paul J Sweeney MP",
    "party": "Labour/Co-operative",
    "constituency": "Glasgow North East",
    "ons_code": "S14000032"
  },
  "S14000018": {
    "mp": "Jo Swinson MP",
    "party": "Liberal Democrat",
    "constituency": "East Dunbartonshire",
    "ons_code": "S14000018"
  },
  "E14000678": {
    "mp": "Rt Hon Sir Hugo Swire MP",
    "party": "Conservative",
    "constituency": "East Devon",
    "ons_code": "E14000678"
  },
  "E14000881": {
    "mp": "Mr Robert Syms MP",
    "party": "Conservative",
    "constituency": "Poole",
    "ons_code": "E14000881"
  },
  "W07000043": {
    "mp": "Mark Tami MP",
    "party": "Labour",
    "constituency": "Alyn and Deeside",
    "ons_code": "W07000043"
  },
  "S14000029": {
    "mp": "Alison Thewliss MP",
    "party": "Scottish National Party",
    "constituency": "Glasgow Central",
    "ons_code": "S14000029"
  },
  "E14000964": {
    "mp": "Derek Thomas MP",
    "party": "Conservative",
    "constituency": "St Ives",
    "ons_code": "E14000964"
  },
  "E14000732": {
    "mp": "Gareth Thomas MP",
    "party": "Labour/Co-operative",
    "constituency": "Harrow West",
    "ons_code": "E14000732"
  },
  "W07000053": {
    "mp": "Nick Thomas-Symonds MP",
    "party": "Labour",
    "constituency": "Torfaen",
    "ons_code": "W07000053"
  },
  "S14000002": {
    "mp": "Ross Thomson MP",
    "party": "Conservative",
    "constituency": "Aberdeen South",
    "ons_code": "S14000002"
  },
  "E14000764": {
    "mp": "Rt Hon Emily Thornberry MP",
    "party": "Labour",
    "constituency": "Islington South and Finsbury",
    "ons_code": "E14000764"
  },
  "E14000695": {
    "mp": "Maggie Throup MP",
    "party": "Conservative",
    "constituency": "Erewash",
    "ons_code": "E14000695"
  },
  "E14000679": {
    "mp": "Rt Hon Stephen Timms MP",
    "party": "Labour",
    "constituency": "East Ham",
    "ons_code": "E14000679"
  },
  "E14000898": {
    "mp": "Kelly Tolhurst MP",
    "party": "Conservative",
    "constituency": "Rochester and Strood",
    "ons_code": "E14000898"
  },
  "E14000851": {
    "mp": "Justin Tomlinson MP",
    "party": "Conservative",
    "constituency": "North Swindon",
    "ons_code": "E14000851"
  },
  "E14000815": {
    "mp": "Michael Tomlinson MP",
    "party": "Conservative",
    "constituency": "Mid Dorset and North Poole",
    "ons_code": "E14000815"
  },
  "E14000854": {
    "mp": "Craig Tracey MP",
    "party": "Conservative",
    "constituency": "North Warwickshire",
    "ons_code": "E14000854"
  },
  "E14000583": {
    "mp": "David Tredinnick MP",
    "party": "Conservative",
    "constituency": "Bosworth",
    "ons_code": "E14000583"
  },
  "E14000554": {
    "mp": "Mrs Anne-Marie Trevelyan MP",
    "party": "Conservative",
    "constituency": "Berwick-upon-Tweed",
    "ons_code": "E14000554"
  },
  "E14000740": {
    "mp": "Jon Trickett MP",
    "party": "Labour",
    "constituency": "Hemsworth",
    "ons_code": "E14000740"
  },
  "E14000952": {
    "mp": "Rt Hon Elizabeth Truss MP",
    "party": "Conservative",
    "constituency": "South West Norfolk",
    "ons_code": "E14000952"
  },
  "E14000997": {
    "mp": "Tom Tugendhat MP",
    "party": "Conservative",
    "constituency": "Tonbridge and Malling",
    "ons_code": "E14000997"
  },
  "E14000891": {
    "mp": "Anna Turley MP",
    "party": "Labour/Co-operative",
    "constituency": "Redcar",
    "ons_code": "E14000891"
  },
  "E14000771": {
    "mp": "Karl Turner MP",
    "party": "Labour",
    "constituency": "Kingston upon Hull East",
    "ons_code": "E14000771"
  },
  "E14000725": {
    "mp": "Derek Twigg MP",
    "party": "Labour",
    "constituency": "Halton",
    "ons_code": "E14000725"
  },
  "E14000796": {
    "mp": "Stephen Twigg MP",
    "party": "Labour/Co-operative",
    "constituency": "Liverpool, West Derby",
    "ons_code": "E14000796"
  },
  "E14000574": {
    "mp": "Liz Twist MP",
    "party": "Labour",
    "constituency": "Blaydon",
    "ons_code": "E14000574"
  },
  "E14000978": {
    "mp": "Chuka Umunna MP",
    "party": "Labour",
    "constituency": "Streatham",
    "ons_code": "E14000978"
  },
  "E14001015": {
    "mp": "Rt Hon Edward Vaizey MP",
    "party": "Conservative",
    "constituency": "Wantage",
    "ons_code": "E14001015"
  },
  "E14000855": {
    "mp": "Mr Shailesh Vara MP",
    "party": "Conservative",
    "constituency": "North West Cambridgeshire",
    "ons_code": "E14000855"
  },
  "E14000782": {
    "mp": "Rt Hon Keith Vaz MP",
    "party": "Labour",
    "constituency": "Leicester East",
    "ons_code": "E14000782"
  },
  "E14001012": {
    "mp": "Valerie Vaz MP",
    "party": "Labour",
    "constituency": "Walsall South",
    "ons_code": "E14001012"
  },
  "E14000643": {
    "mp": "Martin Vickers MP",
    "party": "Conservative",
    "constituency": "Cleethorpes",
    "ons_code": "E14000643"
  },
  "E14000636": {
    "mp": "Rt Hon Theresa Villiers MP",
    "party": "Conservative",
    "constituency": "Chipping Barnet",
    "ons_code": "E14000636"
  },
  "E14000606": {
    "mp": "Mr Charles Walker MP",
    "party": "Conservative",
    "constituency": "Broxbourne",
    "ons_code": "E14000606"
  },
  "E14001052": {
    "mp": "Mr Robin Walker MP",
    "party": "Conservative",
    "constituency": "Worcester",
    "ons_code": "E14001052"
  },
  "E14000645": {
    "mp": "Thelma Walker MP",
    "party": "Labour",
    "constituency": "Colne Valley",
    "ons_code": "E14000645"
  },
  "E14001057": {
    "mp": "Rt Hon Ben Wallace MP",
    "party": "Conservative",
    "constituency": "Wyre and Preston North",
    "ons_code": "E14001057"
  },
  "E14000932": {
    "mp": "David Warburton MP",
    "party": "Conservative",
    "constituency": "Somerton and Frome",
    "ons_code": "E14000932"
  },
  "E14000582": {
    "mp": "Matt Warman MP",
    "party": "Conservative",
    "constituency": "Boston and Skegness",
    "ons_code": "E14000582"
  },
  "E14000642": {
    "mp": "Giles Watling MP",
    "party": "Conservative",
    "constituency": "Clacton",
    "ons_code": "E14000642"
  },
  "E14001029": {
    "mp": "Tom Watson MP",
    "party": "Labour",
    "constituency": "West Bromwich East",
    "ons_code": "E14001029"
  },
  "E14000752": {
    "mp": "Catherine West MP",
    "party": "Labour",
    "constituency": "Hornsey and Wood Green",
    "ons_code": "E14000752"
  },
  "E14001019": {
    "mp": "Matt Western MP",
    "party": "Labour",
    "constituency": "Warwick and Leamington",
    "ons_code": "E14001019"
  },
  "E14000700": {
    "mp": "Helen Whately MP",
    "party": "Conservative",
    "constituency": "Faversham and Mid Kent",
    "ons_code": "E14000700"
  },
  "E14000935": {
    "mp": "Mrs Heather Wheeler MP",
    "party": "Conservative",
    "constituency": "South Derbyshire",
    "ons_code": "E14000935"
  },
  "E14000956": {
    "mp": "Dr Alan Whitehead MP",
    "party": "Labour",
    "constituency": "Southampton, Test",
    "ons_code": "E14000956"
  },
  "S14000020": {
    "mp": "Martin Whitfield MP",
    "party": "Labour",
    "constituency": "East Lothian",
    "ons_code": "S14000020"
  },
  "S14000010": {
    "mp": "Dr Philippa Whitford MP",
    "party": "Scottish National Party",
    "constituency": "Central Ayrshire",
    "ons_code": "S14000010"
  },
  "E14000614": {
    "mp": "Craig Whittaker MP",
    "party": "Conservative",
    "constituency": "Calder Valley",
    "ons_code": "E14000614"
  },
  "E14000806": {
    "mp": "Rt Hon John Whittingdale MP",
    "party": "Conservative",
    "constituency": "Maldon",
    "ons_code": "E14000806"
  },
  "E14000847": {
    "mp": "Bill Wiggin MP",
    "party": "Conservative",
    "constituency": "North Herefordshire",
    "ons_code": "E14000847"
  },
  "W07000057": {
    "mp": "Hywel Williams MP",
    "party": "Plaid Cymru",
    "constituency": "Arfon",
    "ons_code": "W07000057"
  },
  "E14000971": {
    "mp": "Dr Paul Williams MP",
    "party": "Labour",
    "constituency": "Stockton South",
    "ons_code": "E14000971"
  },
  "E14000662": {
    "mp": "Chris Williamson MP",
    "party": "Labour",
    "constituency": "Derby North",
    "ons_code": "E14000662"
  },
  "E14000945": {
    "mp": "Rt Hon Gavin Williamson MP",
    "party": "Conservative",
    "constituency": "South Staffordshire",
    "ons_code": "E14000945"
  },
  "E14000915": {
    "mp": "Phil Wilson MP",
    "party": "Labour",
    "constituency": "Sedgefield",
    "ons_code": "E14000915"
  },
  "N06000005": {
    "mp": "Sammy Wilson MP",
    "party": "Democratic Unionist Party",
    "constituency": "East Antrim",
    "ons_code": "N06000005"
  },
  "E14000668": {
    "mp": "Rt Hon Dame Rosie Winterton MP",
    "party": "Labour",
    "constituency": "Doncaster Central",
    "ons_code": "E14000668"
  },
  "S14000054": {
    "mp": "Pete Wishart MP",
    "party": "Scottish National Party",
    "constituency": "Perth and North Perthshire",
    "ons_code": "S14000054"
  },
  "E14001001": {
    "mp": "Dr Sarah Wollaston MP",
    "party": "Conservative",
    "constituency": "Totnes",
    "ons_code": "E14001001"
  },
  "E14000672": {
    "mp": "Mike Wood MP",
    "party": "Conservative",
    "constituency": "Dudley South",
    "ons_code": "E14000672"
  },
  "E14000543": {
    "mp": "John Woodcock MP",
    "party": "Labour/Co-operative",
    "constituency": "Barrow and Furness",
    "ons_code": "E14000543"
  },
  "E14000738": {
    "mp": "Mr William Wragg MP",
    "party": "Conservative",
    "constituency": "Hazel Grove",
    "ons_code": "E14000738"
  },
  "E14000767": {
    "mp": "Rt Hon Jeremy Wright QC MP",
    "party": "Conservative",
    "constituency": "Kenilworth and Southam",
    "ons_code": "E14000767"
  },
  "E14000552": {
    "mp": "Mohammad Yasin MP",
    "party": "Labour",
    "constituency": "Bedford",
    "ons_code": "E14000552"
  },
  "E14000977": {
    "mp": "Nadhim Zahawi MP",
    "party": "Conservative",
    "constituency": "Stratford-on-Avon",
    "ons_code": "E14000977"
  },
  "E14000617": {
    "mp": "Daniel Zeichner MP",
    "party": "Labour",
    "constituency": "Cambridge",
    "ons_code": "E14000617"
  }
}
